GFORTRAN module version '10' created from /software/campariv3/source/hsl/hsl_ma48d_ciface.f90
MD5:2fe1fc45fbe16db93518261117d7dcb2 -- If you edit this, you'll get what you deserve.

(() () () () () () () () () () () () () () () () () () () () () () ()
() () () ())

()

(('c_funptr' '__iso_c_binding' 2) ('c_ptr' '__iso_c_binding' 3) (
'f_ma48_ainfo' 'hsl_ma48_double' 4) ('f_ma48_analyse' 'hsl_ma48_double'
5) ('f_ma48_control' 'hsl_ma48_double' 6) ('f_ma48_determinant'
'hsl_ma48_double' 7) ('f_ma48_factorize' 'hsl_ma48_double' 8) (
'f_ma48_factors' 'hsl_ma48_double' 9) ('f_ma48_finalize' 'hsl_ma48_double'
10) ('f_ma48_finfo' 'hsl_ma48_double' 11) ('f_ma48_get_perm'
'hsl_ma48_double' 12) ('f_ma48_initialize' 'hsl_ma48_double' 13) (
'f_ma48_sinfo' 'hsl_ma48_double' 14) ('f_ma48_solve' 'hsl_ma48_double'
15) ('f_ma48_special_rows_and_cols' 'hsl_ma48_double' 16) ('ma48_ainfo'
'hsl_ma48_double_ciface' 17) ('ma48_control' 'hsl_ma48_double_ciface' 18)
('ma48_finfo' 'hsl_ma48_double_ciface' 19) ('ma48_sinfo'
'hsl_ma48_double_ciface' 20) ('zd11_type' 'hsl_zd11_double' 21))

()

()

()

(5 'ma48_analyse_double' 'hsl_ma48_double' '' 1 ((PROCEDURE
UNKNOWN-INTENT MODULE-PROC DECL UNKNOWN 0 0 SUBROUTINE ALWAYS_EXPLICIT)
(UNKNOWN 0 0 0 0 UNKNOWN ()) 22 0 (23 24 25 26 27 28 29) () 0 () () () 0
0)
10 'ma48_finalize_double' 'hsl_ma48_double' '' 1 ((PROCEDURE
UNKNOWN-INTENT MODULE-PROC DECL UNKNOWN 0 0 SUBROUTINE) (UNKNOWN 0 0 0 0
UNKNOWN ()) 30 0 (31 32 33) () 0 () () () 0 0)
12 'ma48_get_perm_double' 'hsl_ma48_double' '' 1 ((PROCEDURE
UNKNOWN-INTENT MODULE-PROC DECL UNKNOWN 0 0 SUBROUTINE IMPLICIT_PURE
ALWAYS_EXPLICIT) (UNKNOWN 0 0 0 0 UNKNOWN ()) 34 0 (35 36) () 0 () () ()
0 0)
13 'ma48_initialize_double' 'hsl_ma48_double' '' 1 ((PROCEDURE
UNKNOWN-INTENT MODULE-PROC DECL UNKNOWN 0 0 SUBROUTINE IMPLICIT_PURE
ALWAYS_EXPLICIT) (UNKNOWN 0 0 0 0 UNKNOWN ()) 37 0 (38 39) () 0 () () ()
0 0)
16 'ma48_special_rows_and_cols_double' 'hsl_ma48_double' '' 1 ((
PROCEDURE UNKNOWN-INTENT MODULE-PROC DECL UNKNOWN 0 0 SUBROUTINE) (
UNKNOWN 0 0 0 0 UNKNOWN ()) 40 0 (41 42 43 44 45 46) () 0 () () () 0 0)
21 'Zd11_type' 'hsl_zd11_double' '' 1 ((DERIVED UNKNOWN-INTENT
UNKNOWN-PROC UNKNOWN UNKNOWN 0 0 ALLOC_COMP) (UNKNOWN 0 0 0 0 UNKNOWN ())
0 0 () () 0 ((47 'm' (INTEGER 4 0 0 0 INTEGER ()) () (UNKNOWN-FL
UNKNOWN-INTENT UNKNOWN-PROC UNKNOWN UNKNOWN 0 0) UNKNOWN-ACCESS ()) (48
'n' (INTEGER 4 0 0 0 INTEGER ()) () (UNKNOWN-FL UNKNOWN-INTENT
UNKNOWN-PROC UNKNOWN UNKNOWN 0 0) UNKNOWN-ACCESS ()) (49 'ne' (INTEGER 4
0 0 0 INTEGER ()) () (UNKNOWN-FL UNKNOWN-INTENT UNKNOWN-PROC UNKNOWN
UNKNOWN 0 0) UNKNOWN-ACCESS ()) (50 'id' (CHARACTER 1 0 0 0 CHARACTER (
(CONSTANT (INTEGER 4 0 0 0 INTEGER ()) 0 '1'))) (1 0 DEFERRED () ()) (
UNKNOWN-FL UNKNOWN-INTENT UNKNOWN-PROC UNKNOWN UNKNOWN 0 0 ALLOCATABLE
DIMENSION) UNKNOWN-ACCESS ()) (51 'type' (CHARACTER 1 0 0 0 CHARACTER (
(CONSTANT (INTEGER 4 0 0 0 INTEGER ()) 0 '1'))) (1 0 DEFERRED () ()) (
UNKNOWN-FL UNKNOWN-INTENT UNKNOWN-PROC UNKNOWN UNKNOWN 0 0 ALLOCATABLE
DIMENSION) UNKNOWN-ACCESS ()) (52 'row' (INTEGER 4 0 0 0 INTEGER ()) (1
0 DEFERRED () ()) (UNKNOWN-FL UNKNOWN-INTENT UNKNOWN-PROC UNKNOWN
UNKNOWN 0 0 ALLOCATABLE DIMENSION) UNKNOWN-ACCESS ()) (53 'col' (
INTEGER 4 0 0 0 INTEGER ()) (1 0 DEFERRED () ()) (UNKNOWN-FL
UNKNOWN-INTENT UNKNOWN-PROC UNKNOWN UNKNOWN 0 0 ALLOCATABLE DIMENSION)
UNKNOWN-ACCESS ()) (54 'ptr' (INTEGER 4 0 0 0 INTEGER ()) (1 0 DEFERRED
() ()) (UNKNOWN-FL UNKNOWN-INTENT UNKNOWN-PROC UNKNOWN UNKNOWN 0 0
ALLOCATABLE DIMENSION) UNKNOWN-ACCESS ()) (55 'val' (REAL 8 0 0 0 REAL ())
(1 0 DEFERRED () ()) (UNKNOWN-FL UNKNOWN-INTENT UNKNOWN-PROC UNKNOWN
UNKNOWN 0 0 ALLOCATABLE DIMENSION) UNKNOWN-ACCESS ())) PUBLIC (() () ()
()) () 0 0 15175000)
15 'ma48_solve_double' 'hsl_ma48_double' '' 1 ((PROCEDURE UNKNOWN-INTENT
MODULE-PROC DECL UNKNOWN 0 0 SUBROUTINE ALWAYS_EXPLICIT) (UNKNOWN 0 0 0
0 UNKNOWN ()) 56 0 (57 58 59 60 61 62 63 64 65) () 0 () () () 0 0)
8 'ma48_factorize_double' 'hsl_ma48_double' '' 1 ((PROCEDURE
UNKNOWN-INTENT MODULE-PROC DECL UNKNOWN 0 0 SUBROUTINE ALWAYS_EXPLICIT)
(UNKNOWN 0 0 0 0 UNKNOWN ()) 66 0 (67 68 69 70 71 72) () 0 () () () 0 0)
7 'ma48_determinant_double' 'hsl_ma48_double' '' 1 ((PROCEDURE
UNKNOWN-INTENT MODULE-PROC DECL UNKNOWN 0 0 SUBROUTINE) (UNKNOWN 0 0 0 0
UNKNOWN ()) 73 0 (74 75 76 77 78) () 0 () () () 0 0)
2 'C_funptr' '__iso_c_binding' '' 1 ((DERIVED UNKNOWN-INTENT
UNKNOWN-PROC UNKNOWN UNKNOWN 0 0 IS_BIND_C IS_C_INTEROP IS_ISO_C) (
DERIVED 2 0 1 1 UNKNOWN ()) 0 0 () () 0 ((79 '__c_funptr_c_address' (
INTEGER 8 0 1 0 INTEGER ()) () (UNKNOWN-FL UNKNOWN-INTENT UNKNOWN-PROC
UNKNOWN UNKNOWN 0 0) UNKNOWN-ACCESS ())) UNKNOWN-ACCESS () () 2 44 0)
3 'C_ptr' '__iso_c_binding' '' 1 ((DERIVED UNKNOWN-INTENT UNKNOWN-PROC
UNKNOWN UNKNOWN 0 0 IS_BIND_C IS_C_INTEROP IS_ISO_C) (DERIVED 3 0 1 1
UNKNOWN ()) 0 0 () () 0 ((80 '__c_ptr_c_address' (INTEGER 8 0 1 0
INTEGER ()) () (UNKNOWN-FL UNKNOWN-INTENT UNKNOWN-PROC UNKNOWN UNKNOWN 0
0) UNKNOWN-ACCESS ())) UNKNOWN-ACCESS () () 2 42 0)
4 'Ma48_ainfo' 'hsl_ma48_double' '' 1 ((DERIVED UNKNOWN-INTENT
UNKNOWN-PROC UNKNOWN UNKNOWN 0 0) (UNKNOWN 0 0 0 0 UNKNOWN ()) 0 0 () ()
0 ((81 'ops' (REAL 8 0 0 0 REAL ()) () (UNKNOWN-FL UNKNOWN-INTENT
UNKNOWN-PROC UNKNOWN UNKNOWN 0 0) UNKNOWN-ACCESS (CONSTANT (REAL 8 0 0 0
REAL ()) 0 '0.00000000000000@0')) (82 'flag' (INTEGER 4 0 0 0 INTEGER ())
() (UNKNOWN-FL UNKNOWN-INTENT UNKNOWN-PROC UNKNOWN UNKNOWN 0 0)
UNKNOWN-ACCESS (CONSTANT (INTEGER 4 0 0 0 INTEGER ()) 0 '0')) (83 'more'
(INTEGER 4 0 0 0 INTEGER ()) () (UNKNOWN-FL UNKNOWN-INTENT UNKNOWN-PROC
UNKNOWN UNKNOWN 0 0) UNKNOWN-ACCESS (CONSTANT (INTEGER 4 0 0 0 INTEGER ())
0 '0')) (84 'lena_analyse' (INTEGER 8 0 0 0 INTEGER ()) () (UNKNOWN-FL
UNKNOWN-INTENT UNKNOWN-PROC UNKNOWN UNKNOWN 0 0) UNKNOWN-ACCESS (
CONSTANT (INTEGER 8 0 0 0 INTEGER ()) 0 '0')) (85 'lenj_analyse' (
INTEGER 8 0 0 0 INTEGER ()) () (UNKNOWN-FL UNKNOWN-INTENT UNKNOWN-PROC
UNKNOWN UNKNOWN 0 0) UNKNOWN-ACCESS (CONSTANT (INTEGER 8 0 0 0 INTEGER ())
0 '0')) (86 'len_analyse' (INTEGER 8 0 0 0 INTEGER ()) () (UNKNOWN-FL
UNKNOWN-INTENT UNKNOWN-PROC UNKNOWN UNKNOWN 0 0) UNKNOWN-ACCESS (
CONSTANT (INTEGER 8 0 0 0 INTEGER ()) 0 '0')) (87 'lena_factorize' (
INTEGER 8 0 0 0 INTEGER ()) () (UNKNOWN-FL UNKNOWN-INTENT UNKNOWN-PROC
UNKNOWN UNKNOWN 0 0) UNKNOWN-ACCESS (CONSTANT (INTEGER 8 0 0 0 INTEGER ())
0 '0')) (88 'leni_factorize' (INTEGER 8 0 0 0 INTEGER ()) () (
UNKNOWN-FL UNKNOWN-INTENT UNKNOWN-PROC UNKNOWN UNKNOWN 0 0)
UNKNOWN-ACCESS (CONSTANT (INTEGER 8 0 0 0 INTEGER ()) 0 '0')) (89
'len_factorize' (INTEGER 8 0 0 0 INTEGER ()) () (UNKNOWN-FL
UNKNOWN-INTENT UNKNOWN-PROC UNKNOWN UNKNOWN 0 0) UNKNOWN-ACCESS (
CONSTANT (INTEGER 8 0 0 0 INTEGER ()) 0 '0')) (90 'ncmpa' (INTEGER 4 0 0
0 INTEGER ()) () (UNKNOWN-FL UNKNOWN-INTENT UNKNOWN-PROC UNKNOWN UNKNOWN
0 0) UNKNOWN-ACCESS (CONSTANT (INTEGER 4 0 0 0 INTEGER ()) 0 '0')) (91
'rank' (INTEGER 4 0 0 0 INTEGER ()) () (UNKNOWN-FL UNKNOWN-INTENT
UNKNOWN-PROC UNKNOWN UNKNOWN 0 0) UNKNOWN-ACCESS (CONSTANT (INTEGER 4 0
0 0 INTEGER ()) 0 '0')) (92 'drop' (INTEGER 8 0 0 0 INTEGER ()) () (
UNKNOWN-FL UNKNOWN-INTENT UNKNOWN-PROC UNKNOWN UNKNOWN 0 0)
UNKNOWN-ACCESS (CONSTANT (INTEGER 8 0 0 0 INTEGER ()) 0 '0')) (93
'struc_rank' (INTEGER 4 0 0 0 INTEGER ()) () (UNKNOWN-FL UNKNOWN-INTENT
UNKNOWN-PROC UNKNOWN UNKNOWN 0 0) UNKNOWN-ACCESS (CONSTANT (INTEGER 4 0
0 0 INTEGER ()) 0 '0')) (94 'oor' (INTEGER 8 0 0 0 INTEGER ()) () (
UNKNOWN-FL UNKNOWN-INTENT UNKNOWN-PROC UNKNOWN UNKNOWN 0 0)
UNKNOWN-ACCESS (CONSTANT (INTEGER 8 0 0 0 INTEGER ()) 0 '0')) (95 'dup'
(INTEGER 8 0 0 0 INTEGER ()) () (UNKNOWN-FL UNKNOWN-INTENT UNKNOWN-PROC
UNKNOWN UNKNOWN 0 0) UNKNOWN-ACCESS (CONSTANT (INTEGER 8 0 0 0 INTEGER ())
0 '0')) (96 'stat' (INTEGER 4 0 0 0 INTEGER ()) () (UNKNOWN-FL
UNKNOWN-INTENT UNKNOWN-PROC UNKNOWN UNKNOWN 0 0) UNKNOWN-ACCESS (
CONSTANT (INTEGER 4 0 0 0 INTEGER ()) 0 '0')) (97 'lblock' (INTEGER 4 0
0 0 INTEGER ()) () (UNKNOWN-FL UNKNOWN-INTENT UNKNOWN-PROC UNKNOWN
UNKNOWN 0 0) UNKNOWN-ACCESS (CONSTANT (INTEGER 4 0 0 0 INTEGER ()) 0 '0'))
(98 'sblock' (INTEGER 4 0 0 0 INTEGER ()) () (UNKNOWN-FL UNKNOWN-INTENT
UNKNOWN-PROC UNKNOWN UNKNOWN 0 0) UNKNOWN-ACCESS (CONSTANT (INTEGER 4 0
0 0 INTEGER ()) 0 '0')) (99 'tblock' (INTEGER 8 0 0 0 INTEGER ()) () (
UNKNOWN-FL UNKNOWN-INTENT UNKNOWN-PROC UNKNOWN UNKNOWN 0 0)
UNKNOWN-ACCESS (CONSTANT (INTEGER 8 0 0 0 INTEGER ()) 0 '0'))) PUBLIC (
() () () ()) () 0 0 72631917)
6 'Ma48_control' 'hsl_ma48_double' '' 1 ((DERIVED UNKNOWN-INTENT
UNKNOWN-PROC UNKNOWN UNKNOWN 0 0) (UNKNOWN 0 0 0 0 UNKNOWN ()) 0 0 () ()
0 ((100 'multiplier' (REAL 8 0 0 0 REAL ()) () (UNKNOWN-FL
UNKNOWN-INTENT UNKNOWN-PROC UNKNOWN UNKNOWN 0 0) UNKNOWN-ACCESS ()) (
101 'u' (REAL 8 0 0 0 REAL ()) () (UNKNOWN-FL UNKNOWN-INTENT
UNKNOWN-PROC UNKNOWN UNKNOWN 0 0) UNKNOWN-ACCESS ()) (102 'switch' (
REAL 8 0 0 0 REAL ()) () (UNKNOWN-FL UNKNOWN-INTENT UNKNOWN-PROC UNKNOWN
UNKNOWN 0 0) UNKNOWN-ACCESS ()) (103 'drop' (REAL 8 0 0 0 REAL ()) () (
UNKNOWN-FL UNKNOWN-INTENT UNKNOWN-PROC UNKNOWN UNKNOWN 0 0)
UNKNOWN-ACCESS ()) (104 'tolerance' (REAL 8 0 0 0 REAL ()) () (
UNKNOWN-FL UNKNOWN-INTENT UNKNOWN-PROC UNKNOWN UNKNOWN 0 0)
UNKNOWN-ACCESS ()) (105 'cgce' (REAL 8 0 0 0 REAL ()) () (UNKNOWN-FL
UNKNOWN-INTENT UNKNOWN-PROC UNKNOWN UNKNOWN 0 0) UNKNOWN-ACCESS ()) (
106 'reduce' (REAL 8 0 0 0 REAL ()) () (UNKNOWN-FL UNKNOWN-INTENT
UNKNOWN-PROC UNKNOWN UNKNOWN 0 0) UNKNOWN-ACCESS ()) (107 'la' (INTEGER
4 0 0 0 INTEGER ()) () (UNKNOWN-FL UNKNOWN-INTENT UNKNOWN-PROC UNKNOWN
UNKNOWN 0 0) UNKNOWN-ACCESS ()) (108 'maxla' (INTEGER 4 0 0 0 INTEGER ())
() (UNKNOWN-FL UNKNOWN-INTENT UNKNOWN-PROC UNKNOWN UNKNOWN 0 0)
UNKNOWN-ACCESS ()) (109 'lp' (INTEGER 4 0 0 0 INTEGER ()) () (
UNKNOWN-FL UNKNOWN-INTENT UNKNOWN-PROC UNKNOWN UNKNOWN 0 0)
UNKNOWN-ACCESS ()) (110 'wp' (INTEGER 4 0 0 0 INTEGER ()) () (
UNKNOWN-FL UNKNOWN-INTENT UNKNOWN-PROC UNKNOWN UNKNOWN 0 0)
UNKNOWN-ACCESS ()) (111 'mp' (INTEGER 4 0 0 0 INTEGER ()) () (
UNKNOWN-FL UNKNOWN-INTENT UNKNOWN-PROC UNKNOWN UNKNOWN 0 0)
UNKNOWN-ACCESS ()) (112 'ldiag' (INTEGER 4 0 0 0 INTEGER ()) () (
UNKNOWN-FL UNKNOWN-INTENT UNKNOWN-PROC UNKNOWN UNKNOWN 0 0)
UNKNOWN-ACCESS ()) (113 'btf' (INTEGER 4 0 0 0 INTEGER ()) () (
UNKNOWN-FL UNKNOWN-INTENT UNKNOWN-PROC UNKNOWN UNKNOWN 0 0)
UNKNOWN-ACCESS ()) (114 'struct' (LOGICAL 4 0 0 0 LOGICAL ()) () (
UNKNOWN-FL UNKNOWN-INTENT UNKNOWN-PROC UNKNOWN UNKNOWN 0 0)
UNKNOWN-ACCESS ()) (115 'maxit' (INTEGER 4 0 0 0 INTEGER ()) () (
UNKNOWN-FL UNKNOWN-INTENT UNKNOWN-PROC UNKNOWN UNKNOWN 0 0)
UNKNOWN-ACCESS ()) (116 'factor_blocking' (INTEGER 4 0 0 0 INTEGER ()) ()
(UNKNOWN-FL UNKNOWN-INTENT UNKNOWN-PROC UNKNOWN UNKNOWN 0 0)
UNKNOWN-ACCESS ()) (117 'solve_blas' (INTEGER 4 0 0 0 INTEGER ()) () (
UNKNOWN-FL UNKNOWN-INTENT UNKNOWN-PROC UNKNOWN UNKNOWN 0 0)
UNKNOWN-ACCESS ()) (118 'pivoting' (INTEGER 4 0 0 0 INTEGER ()) () (
UNKNOWN-FL UNKNOWN-INTENT UNKNOWN-PROC UNKNOWN UNKNOWN 0 0)
UNKNOWN-ACCESS ()) (119 'diagonal_pivoting' (LOGICAL 4 0 0 0 LOGICAL ())
() (UNKNOWN-FL UNKNOWN-INTENT UNKNOWN-PROC UNKNOWN UNKNOWN 0 0)
UNKNOWN-ACCESS ()) (120 'fill_in' (INTEGER 4 0 0 0 INTEGER ()) () (
UNKNOWN-FL UNKNOWN-INTENT UNKNOWN-PROC UNKNOWN UNKNOWN 0 0)
UNKNOWN-ACCESS ()) (121 'switch_mode' (LOGICAL 4 0 0 0 LOGICAL ()) () (
UNKNOWN-FL UNKNOWN-INTENT UNKNOWN-PROC UNKNOWN UNKNOWN 0 0)
UNKNOWN-ACCESS ())) PUBLIC (() () () ()) () 0 0 97595675)
9 'Ma48_factors' 'hsl_ma48_double' '' 1 ((DERIVED UNKNOWN-INTENT
UNKNOWN-PROC UNKNOWN UNKNOWN 0 0 ALLOC_COMP) (UNKNOWN 0 0 0 0 UNKNOWN ())
0 0 () () 0 ((122 'keep' (INTEGER 8 0 0 0 INTEGER ()) (1 0 DEFERRED () ())
(UNKNOWN-FL UNKNOWN-INTENT UNKNOWN-PROC UNKNOWN UNKNOWN 0 0 ALLOCATABLE
DIMENSION) UNKNOWN-ACCESS ()) (123 'irn' (INTEGER 8 0 0 0 INTEGER ()) (
1 0 DEFERRED () ()) (UNKNOWN-FL UNKNOWN-INTENT UNKNOWN-PROC UNKNOWN
UNKNOWN 0 0 ALLOCATABLE DIMENSION) UNKNOWN-ACCESS ()) (124 'jcn' (
INTEGER 8 0 0 0 INTEGER ()) (1 0 DEFERRED () ()) (UNKNOWN-FL
UNKNOWN-INTENT UNKNOWN-PROC UNKNOWN UNKNOWN 0 0 ALLOCATABLE DIMENSION)
UNKNOWN-ACCESS ()) (125 'val' (REAL 8 0 0 0 REAL ()) (1 0 DEFERRED () ())
(UNKNOWN-FL UNKNOWN-INTENT UNKNOWN-PROC UNKNOWN UNKNOWN 0 0 ALLOCATABLE
DIMENSION) UNKNOWN-ACCESS ()) (126 'm' (INTEGER 4 0 0 0 INTEGER ()) () (
UNKNOWN-FL UNKNOWN-INTENT UNKNOWN-PROC UNKNOWN UNKNOWN 0 0)
UNKNOWN-ACCESS ()) (127 'n' (INTEGER 4 0 0 0 INTEGER ()) () (UNKNOWN-FL
UNKNOWN-INTENT UNKNOWN-PROC UNKNOWN UNKNOWN 0 0) UNKNOWN-ACCESS ()) (
128 'lareq' (INTEGER 8 0 0 0 INTEGER ()) () (UNKNOWN-FL UNKNOWN-INTENT
UNKNOWN-PROC UNKNOWN UNKNOWN 0 0) UNKNOWN-ACCESS ()) (129 'lirnreq' (
INTEGER 8 0 0 0 INTEGER ()) () (UNKNOWN-FL UNKNOWN-INTENT UNKNOWN-PROC
UNKNOWN UNKNOWN 0 0) UNKNOWN-ACCESS ()) (130 'partial' (INTEGER 4 0 0 0
INTEGER ()) () (UNKNOWN-FL UNKNOWN-INTENT UNKNOWN-PROC UNKNOWN UNKNOWN 0
0) UNKNOWN-ACCESS ()) (131 'ndrop' (INTEGER 8 0 0 0 INTEGER ()) () (
UNKNOWN-FL UNKNOWN-INTENT UNKNOWN-PROC UNKNOWN UNKNOWN 0 0)
UNKNOWN-ACCESS ()) (132 'first' (INTEGER 4 0 0 0 INTEGER ()) () (
UNKNOWN-FL UNKNOWN-INTENT UNKNOWN-PROC UNKNOWN UNKNOWN 0 0)
UNKNOWN-ACCESS ())) PUBLIC (() () () ()) () 0 0 99047522)
11 'Ma48_finfo' 'hsl_ma48_double' '' 1 ((DERIVED UNKNOWN-INTENT
UNKNOWN-PROC UNKNOWN UNKNOWN 0 0) (UNKNOWN 0 0 0 0 UNKNOWN ()) 0 0 () ()
0 ((133 'ops' (REAL 8 0 0 0 REAL ()) () (UNKNOWN-FL UNKNOWN-INTENT
UNKNOWN-PROC UNKNOWN UNKNOWN 0 0) UNKNOWN-ACCESS (CONSTANT (REAL 8 0 0 0
REAL ()) 0 '0.00000000000000@0')) (134 'flag' (INTEGER 4 0 0 0 INTEGER ())
() (UNKNOWN-FL UNKNOWN-INTENT UNKNOWN-PROC UNKNOWN UNKNOWN 0 0)
UNKNOWN-ACCESS (CONSTANT (INTEGER 4 0 0 0 INTEGER ()) 0 '0')) (135 'more'
(INTEGER 4 0 0 0 INTEGER ()) () (UNKNOWN-FL UNKNOWN-INTENT UNKNOWN-PROC
UNKNOWN UNKNOWN 0 0) UNKNOWN-ACCESS (CONSTANT (INTEGER 4 0 0 0 INTEGER ())
0 '0')) (136 'size_factor' (INTEGER 8 0 0 0 INTEGER ()) () (UNKNOWN-FL
UNKNOWN-INTENT UNKNOWN-PROC UNKNOWN UNKNOWN 0 0) UNKNOWN-ACCESS (
CONSTANT (INTEGER 8 0 0 0 INTEGER ()) 0 '0')) (137 'lena_factorize' (
INTEGER 8 0 0 0 INTEGER ()) () (UNKNOWN-FL UNKNOWN-INTENT UNKNOWN-PROC
UNKNOWN UNKNOWN 0 0) UNKNOWN-ACCESS (CONSTANT (INTEGER 8 0 0 0 INTEGER ())
0 '0')) (138 'leni_factorize' (INTEGER 8 0 0 0 INTEGER ()) () (
UNKNOWN-FL UNKNOWN-INTENT UNKNOWN-PROC UNKNOWN UNKNOWN 0 0)
UNKNOWN-ACCESS (CONSTANT (INTEGER 8 0 0 0 INTEGER ()) 0 '0')) (139
'len_factorize' (INTEGER 8 0 0 0 INTEGER ()) () (UNKNOWN-FL
UNKNOWN-INTENT UNKNOWN-PROC UNKNOWN UNKNOWN 0 0) UNKNOWN-ACCESS (
CONSTANT (INTEGER 8 0 0 0 INTEGER ()) 0 '0')) (140 'drop' (INTEGER 8 0 0
0 INTEGER ()) () (UNKNOWN-FL UNKNOWN-INTENT UNKNOWN-PROC UNKNOWN UNKNOWN
0 0) UNKNOWN-ACCESS (CONSTANT (INTEGER 8 0 0 0 INTEGER ()) 0 '0')) (141
'rank' (INTEGER 4 0 0 0 INTEGER ()) () (UNKNOWN-FL UNKNOWN-INTENT
UNKNOWN-PROC UNKNOWN UNKNOWN 0 0) UNKNOWN-ACCESS (CONSTANT (INTEGER 4 0
0 0 INTEGER ()) 0 '0')) (142 'stat' (INTEGER 4 0 0 0 INTEGER ()) () (
UNKNOWN-FL UNKNOWN-INTENT UNKNOWN-PROC UNKNOWN UNKNOWN 0 0)
UNKNOWN-ACCESS (CONSTANT (INTEGER 4 0 0 0 INTEGER ()) 0 '0'))) PUBLIC (
() () () ()) () 0 0 75486066)
14 'Ma48_sinfo' 'hsl_ma48_double' '' 1 ((DERIVED UNKNOWN-INTENT
UNKNOWN-PROC UNKNOWN UNKNOWN 0 0) (UNKNOWN 0 0 0 0 UNKNOWN ()) 0 0 () ()
0 ((143 'flag' (INTEGER 4 0 0 0 INTEGER ()) () (UNKNOWN-FL
UNKNOWN-INTENT UNKNOWN-PROC UNKNOWN UNKNOWN 0 0) UNKNOWN-ACCESS (
CONSTANT (INTEGER 4 0 0 0 INTEGER ()) 0 '0')) (144 'more' (INTEGER 4 0 0
0 INTEGER ()) () (UNKNOWN-FL UNKNOWN-INTENT UNKNOWN-PROC UNKNOWN UNKNOWN
0 0) UNKNOWN-ACCESS (CONSTANT (INTEGER 4 0 0 0 INTEGER ()) 0 '0')) (145
'stat' (INTEGER 4 0 0 0 INTEGER ()) () (UNKNOWN-FL UNKNOWN-INTENT
UNKNOWN-PROC UNKNOWN UNKNOWN 0 0) UNKNOWN-ACCESS (CONSTANT (INTEGER 4 0
0 0 INTEGER ()) 0 '0'))) PUBLIC (() () () ()) () 0 0 9952639)
17 'Ma48_ainfo' 'hsl_ma48_double_ciface' '' 1 ((DERIVED UNKNOWN-INTENT
UNKNOWN-PROC UNKNOWN UNKNOWN 0 0 IS_BIND_C) (UNKNOWN 0 0 1 0 UNKNOWN ())
0 0 () () 0 ((146 'ops' (REAL 8 0 1 0 REAL ()) () (UNKNOWN-FL
UNKNOWN-INTENT UNKNOWN-PROC UNKNOWN UNKNOWN 0 0) UNKNOWN-ACCESS ()) (
147 'flag' (INTEGER 4 0 1 0 INTEGER ()) () (UNKNOWN-FL UNKNOWN-INTENT
UNKNOWN-PROC UNKNOWN UNKNOWN 0 0) UNKNOWN-ACCESS ()) (148 'more' (
INTEGER 4 0 1 0 INTEGER ()) () (UNKNOWN-FL UNKNOWN-INTENT UNKNOWN-PROC
UNKNOWN UNKNOWN 0 0) UNKNOWN-ACCESS ()) (149 'lena_analyse' (INTEGER 8 0
1 0 INTEGER ()) () (UNKNOWN-FL UNKNOWN-INTENT UNKNOWN-PROC UNKNOWN
UNKNOWN 0 0) UNKNOWN-ACCESS ()) (150 'lenj_analyse' (INTEGER 8 0 1 0
INTEGER ()) () (UNKNOWN-FL UNKNOWN-INTENT UNKNOWN-PROC UNKNOWN UNKNOWN 0
0) UNKNOWN-ACCESS ()) (151 'lena_factorize' (INTEGER 8 0 1 0 INTEGER ())
() (UNKNOWN-FL UNKNOWN-INTENT UNKNOWN-PROC UNKNOWN UNKNOWN 0 0)
UNKNOWN-ACCESS ()) (152 'leni_factorize' (INTEGER 8 0 1 0 INTEGER ()) ()
(UNKNOWN-FL UNKNOWN-INTENT UNKNOWN-PROC UNKNOWN UNKNOWN 0 0)
UNKNOWN-ACCESS ()) (153 'ncmpa' (INTEGER 4 0 1 0 INTEGER ()) () (
UNKNOWN-FL UNKNOWN-INTENT UNKNOWN-PROC UNKNOWN UNKNOWN 0 0)
UNKNOWN-ACCESS ()) (154 'rank' (INTEGER 4 0 1 0 INTEGER ()) () (
UNKNOWN-FL UNKNOWN-INTENT UNKNOWN-PROC UNKNOWN UNKNOWN 0 0)
UNKNOWN-ACCESS ()) (155 'drop' (INTEGER 8 0 1 0 INTEGER ()) () (
UNKNOWN-FL UNKNOWN-INTENT UNKNOWN-PROC UNKNOWN UNKNOWN 0 0)
UNKNOWN-ACCESS ()) (156 'struc_rank' (INTEGER 4 0 1 0 INTEGER ()) () (
UNKNOWN-FL UNKNOWN-INTENT UNKNOWN-PROC UNKNOWN UNKNOWN 0 0)
UNKNOWN-ACCESS ()) (157 'oor' (INTEGER 8 0 1 0 INTEGER ()) () (
UNKNOWN-FL UNKNOWN-INTENT UNKNOWN-PROC UNKNOWN UNKNOWN 0 0)
UNKNOWN-ACCESS ()) (158 'dup' (INTEGER 8 0 1 0 INTEGER ()) () (
UNKNOWN-FL UNKNOWN-INTENT UNKNOWN-PROC UNKNOWN UNKNOWN 0 0)
UNKNOWN-ACCESS ()) (159 'stat' (INTEGER 4 0 1 0 INTEGER ()) () (
UNKNOWN-FL UNKNOWN-INTENT UNKNOWN-PROC UNKNOWN UNKNOWN 0 0)
UNKNOWN-ACCESS ()) (160 'lblock' (INTEGER 4 0 1 0 INTEGER ()) () (
UNKNOWN-FL UNKNOWN-INTENT UNKNOWN-PROC UNKNOWN UNKNOWN 0 0)
UNKNOWN-ACCESS ()) (161 'sblock' (INTEGER 4 0 1 0 INTEGER ()) () (
UNKNOWN-FL UNKNOWN-INTENT UNKNOWN-PROC UNKNOWN UNKNOWN 0 0)
UNKNOWN-ACCESS ()) (162 'tblock' (INTEGER 8 0 1 0 INTEGER ()) () (
UNKNOWN-FL UNKNOWN-INTENT UNKNOWN-PROC UNKNOWN UNKNOWN 0 0)
UNKNOWN-ACCESS ())) PUBLIC (() () () ()) () 0 0 52384703)
18 'Ma48_control' 'hsl_ma48_double_ciface' '' 1 ((DERIVED UNKNOWN-INTENT
UNKNOWN-PROC UNKNOWN UNKNOWN 0 0 IS_BIND_C) (UNKNOWN 0 0 1 0 UNKNOWN ())
0 0 () () 0 ((163 'f_arrays' (INTEGER 4 0 1 0 INTEGER ()) () (
UNKNOWN-FL UNKNOWN-INTENT UNKNOWN-PROC UNKNOWN UNKNOWN 0 0)
UNKNOWN-ACCESS ()) (164 'multiplier' (REAL 8 0 1 0 REAL ()) () (
UNKNOWN-FL UNKNOWN-INTENT UNKNOWN-PROC UNKNOWN UNKNOWN 0 0)
UNKNOWN-ACCESS ()) (165 'u' (REAL 8 0 1 0 REAL ()) () (UNKNOWN-FL
UNKNOWN-INTENT UNKNOWN-PROC UNKNOWN UNKNOWN 0 0) UNKNOWN-ACCESS ()) (
166 'switch' (REAL 8 0 1 0 REAL ()) () (UNKNOWN-FL UNKNOWN-INTENT
UNKNOWN-PROC UNKNOWN UNKNOWN 0 0) UNKNOWN-ACCESS ()) (167 'drop' (REAL 8
0 1 0 REAL ()) () (UNKNOWN-FL UNKNOWN-INTENT UNKNOWN-PROC UNKNOWN
UNKNOWN 0 0) UNKNOWN-ACCESS ()) (168 'tolerance' (REAL 8 0 1 0 REAL ())
() (UNKNOWN-FL UNKNOWN-INTENT UNKNOWN-PROC UNKNOWN UNKNOWN 0 0)
UNKNOWN-ACCESS ()) (169 'cgce' (REAL 8 0 1 0 REAL ()) () (UNKNOWN-FL
UNKNOWN-INTENT UNKNOWN-PROC UNKNOWN UNKNOWN 0 0) UNKNOWN-ACCESS ()) (
170 'lp' (INTEGER 4 0 1 0 INTEGER ()) () (UNKNOWN-FL UNKNOWN-INTENT
UNKNOWN-PROC UNKNOWN UNKNOWN 0 0) UNKNOWN-ACCESS ()) (171 'wp' (INTEGER
4 0 1 0 INTEGER ()) () (UNKNOWN-FL UNKNOWN-INTENT UNKNOWN-PROC UNKNOWN
UNKNOWN 0 0) UNKNOWN-ACCESS ()) (172 'mp' (INTEGER 4 0 1 0 INTEGER ()) ()
(UNKNOWN-FL UNKNOWN-INTENT UNKNOWN-PROC UNKNOWN UNKNOWN 0 0)
UNKNOWN-ACCESS ()) (173 'ldiag' (INTEGER 4 0 1 0 INTEGER ()) () (
UNKNOWN-FL UNKNOWN-INTENT UNKNOWN-PROC UNKNOWN UNKNOWN 0 0)
UNKNOWN-ACCESS ()) (174 'btf' (INTEGER 4 0 1 0 INTEGER ()) () (
UNKNOWN-FL UNKNOWN-INTENT UNKNOWN-PROC UNKNOWN UNKNOWN 0 0)
UNKNOWN-ACCESS ()) (175 'struct' (INTEGER 4 0 1 0 INTEGER ()) () (
UNKNOWN-FL UNKNOWN-INTENT UNKNOWN-PROC UNKNOWN UNKNOWN 0 0)
UNKNOWN-ACCESS ()) (176 'maxit' (INTEGER 4 0 1 0 INTEGER ()) () (
UNKNOWN-FL UNKNOWN-INTENT UNKNOWN-PROC UNKNOWN UNKNOWN 0 0)
UNKNOWN-ACCESS ()) (177 'factor_blocking' (INTEGER 4 0 1 0 INTEGER ()) ()
(UNKNOWN-FL UNKNOWN-INTENT UNKNOWN-PROC UNKNOWN UNKNOWN 0 0)
UNKNOWN-ACCESS ()) (178 'solve_blas' (INTEGER 4 0 1 0 INTEGER ()) () (
UNKNOWN-FL UNKNOWN-INTENT UNKNOWN-PROC UNKNOWN UNKNOWN 0 0)
UNKNOWN-ACCESS ()) (179 'pivoting' (INTEGER 4 0 1 0 INTEGER ()) () (
UNKNOWN-FL UNKNOWN-INTENT UNKNOWN-PROC UNKNOWN UNKNOWN 0 0)
UNKNOWN-ACCESS ()) (180 'diagonal_pivoting' (INTEGER 4 0 1 0 INTEGER ())
() (UNKNOWN-FL UNKNOWN-INTENT UNKNOWN-PROC UNKNOWN UNKNOWN 0 0)
UNKNOWN-ACCESS ()) (181 'fill_in' (INTEGER 4 0 1 0 INTEGER ()) () (
UNKNOWN-FL UNKNOWN-INTENT UNKNOWN-PROC UNKNOWN UNKNOWN 0 0)
UNKNOWN-ACCESS ()) (182 'switch_mode' (INTEGER 4 0 1 0 INTEGER ()) () (
UNKNOWN-FL UNKNOWN-INTENT UNKNOWN-PROC UNKNOWN UNKNOWN 0 0)
UNKNOWN-ACCESS ())) PUBLIC (() () () ()) () 0 0 58577261)
19 'Ma48_finfo' 'hsl_ma48_double_ciface' '' 1 ((DERIVED UNKNOWN-INTENT
UNKNOWN-PROC UNKNOWN UNKNOWN 0 0 IS_BIND_C) (UNKNOWN 0 0 1 0 UNKNOWN ())
0 0 () () 0 ((183 'ops' (REAL 8 0 1 0 REAL ()) () (UNKNOWN-FL
UNKNOWN-INTENT UNKNOWN-PROC UNKNOWN UNKNOWN 0 0) UNKNOWN-ACCESS ()) (
184 'flag' (INTEGER 4 0 1 0 INTEGER ()) () (UNKNOWN-FL UNKNOWN-INTENT
UNKNOWN-PROC UNKNOWN UNKNOWN 0 0) UNKNOWN-ACCESS ()) (185 'more' (
INTEGER 4 0 1 0 INTEGER ()) () (UNKNOWN-FL UNKNOWN-INTENT UNKNOWN-PROC
UNKNOWN UNKNOWN 0 0) UNKNOWN-ACCESS ()) (186 'size_factor' (INTEGER 8 0
1 0 INTEGER ()) () (UNKNOWN-FL UNKNOWN-INTENT UNKNOWN-PROC UNKNOWN
UNKNOWN 0 0) UNKNOWN-ACCESS ()) (187 'lena_factorize' (INTEGER 8 0 1 0
INTEGER ()) () (UNKNOWN-FL UNKNOWN-INTENT UNKNOWN-PROC UNKNOWN UNKNOWN 0
0) UNKNOWN-ACCESS ()) (188 'leni_factorize' (INTEGER 8 0 1 0 INTEGER ())
() (UNKNOWN-FL UNKNOWN-INTENT UNKNOWN-PROC UNKNOWN UNKNOWN 0 0)
UNKNOWN-ACCESS ()) (189 'drop' (INTEGER 8 0 1 0 INTEGER ()) () (
UNKNOWN-FL UNKNOWN-INTENT UNKNOWN-PROC UNKNOWN UNKNOWN 0 0)
UNKNOWN-ACCESS ()) (190 'rank' (INTEGER 4 0 1 0 INTEGER ()) () (
UNKNOWN-FL UNKNOWN-INTENT UNKNOWN-PROC UNKNOWN UNKNOWN 0 0)
UNKNOWN-ACCESS ()) (191 'stat' (INTEGER 4 0 1 0 INTEGER ()) () (
UNKNOWN-FL UNKNOWN-INTENT UNKNOWN-PROC UNKNOWN UNKNOWN 0 0)
UNKNOWN-ACCESS ())) PUBLIC (() () () ()) () 0 0 60271556)
20 'Ma48_sinfo' 'hsl_ma48_double_ciface' '' 1 ((DERIVED UNKNOWN-INTENT
UNKNOWN-PROC UNKNOWN UNKNOWN 0 0 IS_BIND_C) (UNKNOWN 0 0 1 0 UNKNOWN ())
0 0 () () 0 ((192 'flag' (INTEGER 4 0 1 0 INTEGER ()) () (UNKNOWN-FL
UNKNOWN-INTENT UNKNOWN-PROC UNKNOWN UNKNOWN 0 0) UNKNOWN-ACCESS ()) (
193 'more' (INTEGER 4 0 1 0 INTEGER ()) () (UNKNOWN-FL UNKNOWN-INTENT
UNKNOWN-PROC UNKNOWN UNKNOWN 0 0) UNKNOWN-ACCESS ()) (194 'stat' (
INTEGER 4 0 1 0 INTEGER ()) () (UNKNOWN-FL UNKNOWN-INTENT UNKNOWN-PROC
UNKNOWN UNKNOWN 0 0) UNKNOWN-ACCESS ())) PUBLIC (() () () ()) () 0 0
89705425)
195 '__iso_c_binding' '__iso_c_binding' '' 1 ((MODULE UNKNOWN-INTENT
UNKNOWN-PROC UNKNOWN UNKNOWN 0 0 INTRINSIC) (UNKNOWN 0 0 0 0 UNKNOWN ())
0 0 () () 0 () () () 2 0)
196 'c_alert' '__iso_c_binding' '' 1 ((PARAMETER UNKNOWN-INTENT
UNKNOWN-PROC UNKNOWN UNKNOWN 0 0 IS_C_INTEROP IS_ISO_C) (CHARACTER 1 0 1
1 CHARACTER ((CONSTANT (INTEGER 4 0 0 0 INTEGER ()) 0 '1'))) 0 0 () (
CONSTANT (CHARACTER 1 0 1 1 UNKNOWN (())) 0 1 '\U00000007') () 0 () () ()
2 35)
197 'c_associated' '__iso_c_binding' '__iso_c_binding_c_associated' 1 (
(PROCEDURE UNKNOWN-INTENT MODULE-PROC DECL UNKNOWN 0 0 FUNCTION
ALWAYS_EXPLICIT IS_ISO_C) (LOGICAL 4 0 0 0 LOGICAL ()) 198 0 (199 200) ()
197 () () () 2 47)
201 'c_backspace' '__iso_c_binding' '' 1 ((PARAMETER UNKNOWN-INTENT
UNKNOWN-PROC UNKNOWN UNKNOWN 0 0 IS_C_INTEROP IS_ISO_C) (CHARACTER 1 0 1
1 CHARACTER ((CONSTANT (INTEGER 4 0 0 0 INTEGER ()) 0 '1'))) 0 0 () (
CONSTANT (CHARACTER 1 0 1 1 UNKNOWN (())) 0 1 '\U00000008') () 0 () () ()
2 36)
202 'c_bool' '__iso_c_binding' '' 1 ((PARAMETER UNKNOWN-INTENT
UNKNOWN-PROC UNKNOWN UNKNOWN 0 0 IS_C_INTEROP IS_ISO_C) (INTEGER 4 0 1 1
LOGICAL ()) 0 0 () (CONSTANT (INTEGER 4 0 1 1 UNKNOWN ()) 0 '1') () 0 ()
() () 2 32)
203 'c_carriage_return' '__iso_c_binding' '' 1 ((PARAMETER
UNKNOWN-INTENT UNKNOWN-PROC UNKNOWN UNKNOWN 0 0 IS_C_INTEROP IS_ISO_C) (
CHARACTER 1 0 1 1 CHARACTER ((CONSTANT (INTEGER 4 0 0 0 INTEGER ()) 0 '1')))
0 0 () (CONSTANT (CHARACTER 1 0 1 1 UNKNOWN (())) 0 1 '\U0000000d') () 0
() () () 2 39)
204 'c_char' '__iso_c_binding' '' 1 ((PARAMETER UNKNOWN-INTENT
UNKNOWN-PROC UNKNOWN UNKNOWN 0 0 IS_C_INTEROP IS_ISO_C) (INTEGER 4 0 1 1
CHARACTER ()) 0 0 () (CONSTANT (INTEGER 4 0 1 1 UNKNOWN ()) 0 '1') () 0
() () () 2 33)
205 'c_double' '__iso_c_binding' '' 1 ((PARAMETER UNKNOWN-INTENT
UNKNOWN-PROC UNKNOWN UNKNOWN 0 0 IS_C_INTEROP IS_ISO_C) (INTEGER 4 0 1 1
REAL ()) 0 0 () (CONSTANT (INTEGER 4 0 1 1 UNKNOWN ()) 0 '8') () 0 () ()
() 2 25)
206 'c_double_complex' '__iso_c_binding' '' 1 ((PARAMETER UNKNOWN-INTENT
UNKNOWN-PROC UNKNOWN UNKNOWN 0 0 IS_C_INTEROP IS_ISO_C) (INTEGER 4 0 1 1
COMPLEX ()) 0 0 () (CONSTANT (INTEGER 4 0 1 1 UNKNOWN ()) 0 '8') () 0 ()
() () 2 29)
207 'c_f_pointer' '__iso_c_binding' '__iso_c_binding_c_f_pointer' 1 ((
PROCEDURE UNKNOWN-INTENT MODULE-PROC DECL UNKNOWN 0 0 SUBROUTINE
ALWAYS_EXPLICIT IS_ISO_C) (UNKNOWN 0 0 0 0 UNKNOWN ()) 208 0 (209 210
211) () 0 () () () 2 46)
212 'c_f_procpointer' '__iso_c_binding' '__iso_c_binding_c_f_procpointer'
1 ((PROCEDURE UNKNOWN-INTENT MODULE-PROC DECL UNKNOWN 0 0 SUBROUTINE
IS_ISO_C) (UNKNOWN 0 0 0 0 UNKNOWN ()) 213 0 (214 215) () 0 () () () 2
50)
216 'c_float' '__iso_c_binding' '' 1 ((PARAMETER UNKNOWN-INTENT
UNKNOWN-PROC UNKNOWN UNKNOWN 0 0 IS_C_INTEROP IS_ISO_C) (INTEGER 4 0 1 1
REAL ()) 0 0 () (CONSTANT (INTEGER 4 0 1 1 UNKNOWN ()) 0 '4') () 0 () ()
() 2 24)
217 'c_float128' '__iso_c_binding' '' 1 ((PARAMETER UNKNOWN-INTENT
UNKNOWN-PROC UNKNOWN UNKNOWN 0 0 IS_C_INTEROP IS_ISO_C) (INTEGER 4 0 1 1
REAL ()) 0 0 () (CONSTANT (INTEGER 4 0 1 1 UNKNOWN ()) 0 '16') () 0 () ()
() 2 27)
218 'c_float128_complex' '__iso_c_binding' '' 1 ((PARAMETER
UNKNOWN-INTENT UNKNOWN-PROC UNKNOWN UNKNOWN 0 0 IS_C_INTEROP IS_ISO_C) (
INTEGER 4 0 1 1 COMPLEX ()) 0 0 () (CONSTANT (INTEGER 4 0 1 1 UNKNOWN ())
0 '16') () 0 () () () 2 31)
219 'c_float_complex' '__iso_c_binding' '' 1 ((PARAMETER UNKNOWN-INTENT
UNKNOWN-PROC UNKNOWN UNKNOWN 0 0 IS_C_INTEROP IS_ISO_C) (INTEGER 4 0 1 1
COMPLEX ()) 0 0 () (CONSTANT (INTEGER 4 0 1 1 UNKNOWN ()) 0 '4') () 0 ()
() () 2 28)
220 'c_form_feed' '__iso_c_binding' '' 1 ((PARAMETER UNKNOWN-INTENT
UNKNOWN-PROC UNKNOWN UNKNOWN 0 0 IS_C_INTEROP IS_ISO_C) (CHARACTER 1 0 1
1 CHARACTER ((CONSTANT (INTEGER 4 0 0 0 INTEGER ()) 0 '1'))) 0 0 () (
CONSTANT (CHARACTER 1 0 1 1 UNKNOWN (())) 0 1 '\U0000000c') () 0 () () ()
2 37)
221 'c_funloc' '__iso_c_binding' '__iso_c_binding_c_funloc' 1 ((
PROCEDURE UNKNOWN-INTENT UNKNOWN-PROC UNKNOWN UNKNOWN 0 0 EXTERNAL
FUNCTION PURE IS_ISO_C) (DERIVED 2 0 0 0 DERIVED ()) 0 0 () () 221 () ()
() 2 49)
222 'c_funptr' '__iso_c_binding' '' 1 ((PROCEDURE UNKNOWN-INTENT
UNKNOWN-PROC UNKNOWN UNKNOWN 0 0 FUNCTION GENERIC) (UNKNOWN 0 0 0 0
UNKNOWN ()) 0 0 () () 0 () () () 2 44)
223 'c_horizontal_tab' '__iso_c_binding' '' 1 ((PARAMETER UNKNOWN-INTENT
UNKNOWN-PROC UNKNOWN UNKNOWN 0 0 IS_C_INTEROP IS_ISO_C) (CHARACTER 1 0 1
1 CHARACTER ((CONSTANT (INTEGER 4 0 0 0 INTEGER ()) 0 '1'))) 0 0 () (
CONSTANT (CHARACTER 1 0 1 1 UNKNOWN (())) 0 1 '\U00000009') () 0 () () ()
2 40)
224 'c_int' '__iso_c_binding' '' 1 ((PARAMETER UNKNOWN-INTENT
UNKNOWN-PROC UNKNOWN UNKNOWN 0 0 IS_C_INTEROP IS_ISO_C) (INTEGER 4 0 1 1
INTEGER ()) 0 0 () (CONSTANT (INTEGER 4 0 1 1 UNKNOWN ()) 0 '4') () 0 ()
() () 2 0)
225 'c_int128_t' '__iso_c_binding' '' 1 ((PARAMETER UNKNOWN-INTENT
UNKNOWN-PROC UNKNOWN UNKNOWN 0 0 IS_C_INTEROP IS_ISO_C) (INTEGER 4 0 1 1
INTEGER ()) 0 0 () (CONSTANT (INTEGER 4 0 1 1 UNKNOWN ()) 0 '16') () 0 ()
() () 2 13)
226 'c_int16_t' '__iso_c_binding' '' 1 ((PARAMETER UNKNOWN-INTENT
UNKNOWN-PROC UNKNOWN UNKNOWN 0 0 IS_C_INTEROP IS_ISO_C) (INTEGER 4 0 1 1
INTEGER ()) 0 0 () (CONSTANT (INTEGER 4 0 1 1 UNKNOWN ()) 0 '2') () 0 ()
() () 2 10)
227 'c_int32_t' '__iso_c_binding' '' 1 ((PARAMETER UNKNOWN-INTENT
UNKNOWN-PROC UNKNOWN UNKNOWN 0 0 IS_C_INTEROP IS_ISO_C) (INTEGER 4 0 1 1
INTEGER ()) 0 0 () (CONSTANT (INTEGER 4 0 1 1 UNKNOWN ()) 0 '4') () 0 ()
() () 2 11)
228 'c_int64_t' '__iso_c_binding' '' 1 ((PARAMETER UNKNOWN-INTENT
UNKNOWN-PROC UNKNOWN UNKNOWN 0 0 IS_C_INTEROP IS_ISO_C) (INTEGER 4 0 1 1
INTEGER ()) 0 0 () (CONSTANT (INTEGER 4 0 1 1 UNKNOWN ()) 0 '8') () 0 ()
() () 2 12)
229 'c_int8_t' '__iso_c_binding' '' 1 ((PARAMETER UNKNOWN-INTENT
UNKNOWN-PROC UNKNOWN UNKNOWN 0 0 IS_C_INTEROP IS_ISO_C) (INTEGER 4 0 1 1
INTEGER ()) 0 0 () (CONSTANT (INTEGER 4 0 1 1 UNKNOWN ()) 0 '1') () 0 ()
() () 2 9)
230 'c_int_fast128_t' '__iso_c_binding' '' 1 ((PARAMETER UNKNOWN-INTENT
UNKNOWN-PROC UNKNOWN UNKNOWN 0 0 IS_C_INTEROP IS_ISO_C) (INTEGER 4 0 1 1
INTEGER ()) 0 0 () (CONSTANT (INTEGER 4 0 1 1 UNKNOWN ()) 0 '16') () 0 ()
() () 2 23)
231 'c_int_fast16_t' '__iso_c_binding' '' 1 ((PARAMETER UNKNOWN-INTENT
UNKNOWN-PROC UNKNOWN UNKNOWN 0 0 IS_C_INTEROP IS_ISO_C) (INTEGER 4 0 1 1
INTEGER ()) 0 0 () (CONSTANT (INTEGER 4 0 1 1 UNKNOWN ()) 0 '8') () 0 ()
() () 2 20)
232 'c_int_fast32_t' '__iso_c_binding' '' 1 ((PARAMETER UNKNOWN-INTENT
UNKNOWN-PROC UNKNOWN UNKNOWN 0 0 IS_C_INTEROP IS_ISO_C) (INTEGER 4 0 1 1
INTEGER ()) 0 0 () (CONSTANT (INTEGER 4 0 1 1 UNKNOWN ()) 0 '8') () 0 ()
() () 2 21)
233 'c_int_fast64_t' '__iso_c_binding' '' 1 ((PARAMETER UNKNOWN-INTENT
UNKNOWN-PROC UNKNOWN UNKNOWN 0 0 IS_C_INTEROP IS_ISO_C) (INTEGER 4 0 1 1
INTEGER ()) 0 0 () (CONSTANT (INTEGER 4 0 1 1 UNKNOWN ()) 0 '8') () 0 ()
() () 2 22)
234 'c_int_fast8_t' '__iso_c_binding' '' 1 ((PARAMETER UNKNOWN-INTENT
UNKNOWN-PROC UNKNOWN UNKNOWN 0 0 IS_C_INTEROP IS_ISO_C) (INTEGER 4 0 1 1
INTEGER ()) 0 0 () (CONSTANT (INTEGER 4 0 1 1 UNKNOWN ()) 0 '1') () 0 ()
() () 2 19)
235 'c_int_least128_t' '__iso_c_binding' '' 1 ((PARAMETER UNKNOWN-INTENT
UNKNOWN-PROC UNKNOWN UNKNOWN 0 0 IS_C_INTEROP IS_ISO_C) (INTEGER 4 0 1 1
INTEGER ()) 0 0 () (CONSTANT (INTEGER 4 0 1 1 UNKNOWN ()) 0 '16') () 0 ()
() () 2 18)
236 'c_int_least16_t' '__iso_c_binding' '' 1 ((PARAMETER UNKNOWN-INTENT
UNKNOWN-PROC UNKNOWN UNKNOWN 0 0 IS_C_INTEROP IS_ISO_C) (INTEGER 4 0 1 1
INTEGER ()) 0 0 () (CONSTANT (INTEGER 4 0 1 1 UNKNOWN ()) 0 '2') () 0 ()
() () 2 15)
237 'c_int_least32_t' '__iso_c_binding' '' 1 ((PARAMETER UNKNOWN-INTENT
UNKNOWN-PROC UNKNOWN UNKNOWN 0 0 IS_C_INTEROP IS_ISO_C) (INTEGER 4 0 1 1
INTEGER ()) 0 0 () (CONSTANT (INTEGER 4 0 1 1 UNKNOWN ()) 0 '4') () 0 ()
() () 2 16)
238 'c_int_least64_t' '__iso_c_binding' '' 1 ((PARAMETER UNKNOWN-INTENT
UNKNOWN-PROC UNKNOWN UNKNOWN 0 0 IS_C_INTEROP IS_ISO_C) (INTEGER 4 0 1 1
INTEGER ()) 0 0 () (CONSTANT (INTEGER 4 0 1 1 UNKNOWN ()) 0 '8') () 0 ()
() () 2 17)
239 'c_int_least8_t' '__iso_c_binding' '' 1 ((PARAMETER UNKNOWN-INTENT
UNKNOWN-PROC UNKNOWN UNKNOWN 0 0 IS_C_INTEROP IS_ISO_C) (INTEGER 4 0 1 1
INTEGER ()) 0 0 () (CONSTANT (INTEGER 4 0 1 1 UNKNOWN ()) 0 '1') () 0 ()
() () 2 14)
240 'c_intmax_t' '__iso_c_binding' '' 1 ((PARAMETER UNKNOWN-INTENT
UNKNOWN-PROC UNKNOWN UNKNOWN 0 0 IS_C_INTEROP IS_ISO_C) (INTEGER 4 0 1 1
INTEGER ()) 0 0 () (CONSTANT (INTEGER 4 0 1 1 UNKNOWN ()) 0 '8') () 0 ()
() () 2 4)
241 'c_intptr_t' '__iso_c_binding' '' 1 ((PARAMETER UNKNOWN-INTENT
UNKNOWN-PROC UNKNOWN UNKNOWN 0 0 IS_C_INTEROP IS_ISO_C) (INTEGER 4 0 1 1
INTEGER ()) 0 0 () (CONSTANT (INTEGER 4 0 1 1 UNKNOWN ()) 0 '8') () 0 ()
() () 2 5)
242 'c_loc' '__iso_c_binding' '__iso_c_binding_c_loc' 1 ((PROCEDURE
UNKNOWN-INTENT UNKNOWN-PROC UNKNOWN UNKNOWN 0 0 EXTERNAL FUNCTION PURE
IS_ISO_C) (DERIVED 3 0 0 0 DERIVED ()) 0 0 () () 242 () () () 2 48)
243 'c_long' '__iso_c_binding' '' 1 ((PARAMETER UNKNOWN-INTENT
UNKNOWN-PROC UNKNOWN UNKNOWN 0 0 IS_C_INTEROP IS_ISO_C) (INTEGER 4 0 1 1
INTEGER ()) 0 0 () (CONSTANT (INTEGER 4 0 1 1 UNKNOWN ()) 0 '8') () 0 ()
() () 2 2)
244 'c_long_double' '__iso_c_binding' '' 1 ((PARAMETER UNKNOWN-INTENT
UNKNOWN-PROC UNKNOWN UNKNOWN 0 0 IS_C_INTEROP IS_ISO_C) (INTEGER 4 0 1 1
REAL ()) 0 0 () (CONSTANT (INTEGER 4 0 1 1 UNKNOWN ()) 0 '10') () 0 () ()
() 2 26)
245 'c_long_double_complex' '__iso_c_binding' '' 1 ((PARAMETER
UNKNOWN-INTENT UNKNOWN-PROC UNKNOWN UNKNOWN 0 0 IS_C_INTEROP IS_ISO_C) (
INTEGER 4 0 1 1 COMPLEX ()) 0 0 () (CONSTANT (INTEGER 4 0 1 1 UNKNOWN ())
0 '10') () 0 () () () 2 30)
246 'c_long_long' '__iso_c_binding' '' 1 ((PARAMETER UNKNOWN-INTENT
UNKNOWN-PROC UNKNOWN UNKNOWN 0 0 IS_C_INTEROP IS_ISO_C) (INTEGER 4 0 1 1
INTEGER ()) 0 0 () (CONSTANT (INTEGER 4 0 1 1 UNKNOWN ()) 0 '8') () 0 ()
() () 2 3)
247 'c_new_line' '__iso_c_binding' '' 1 ((PARAMETER UNKNOWN-INTENT
UNKNOWN-PROC UNKNOWN UNKNOWN 0 0 IS_C_INTEROP IS_ISO_C) (CHARACTER 1 0 1
1 CHARACTER ((CONSTANT (INTEGER 4 0 0 0 INTEGER ()) 0 '1'))) 0 0 () (
CONSTANT (CHARACTER 1 0 1 1 UNKNOWN (())) 0 1 '\U0000000a') () 0 () () ()
2 38)
248 'c_null_char' '__iso_c_binding' '' 1 ((PARAMETER UNKNOWN-INTENT
UNKNOWN-PROC UNKNOWN UNKNOWN 0 0 IS_C_INTEROP IS_ISO_C) (CHARACTER 1 0 1
1 CHARACTER ((CONSTANT (INTEGER 4 0 0 0 INTEGER ()) 0 '1'))) 0 0 () (
CONSTANT (CHARACTER 1 0 1 1 UNKNOWN (())) 0 1 '\U00000000') () 0 () () ()
2 34)
249 'c_null_funptr' '__iso_c_binding' '' 1 ((PARAMETER UNKNOWN-INTENT
UNKNOWN-PROC UNKNOWN UNKNOWN 0 0 IS_BIND_C IS_C_INTEROP IS_ISO_C) (
DERIVED 2 0 1 1 UNKNOWN ()) 0 0 () (STRUCTURE (DERIVED 2 0 0 0 DERIVED ())
0 (((NULL (UNKNOWN 0 0 0 1 UNKNOWN ()) 0) ())) ()) () 0 () () () 2 45)
250 'c_null_ptr' '__iso_c_binding' '' 1 ((PARAMETER UNKNOWN-INTENT
UNKNOWN-PROC UNKNOWN UNKNOWN 0 0 IS_BIND_C IS_C_INTEROP IS_ISO_C) (
DERIVED 3 0 1 1 UNKNOWN ()) 0 0 () (STRUCTURE (DERIVED 3 0 0 0 DERIVED ())
0 (((NULL (UNKNOWN 0 0 0 1 UNKNOWN ()) 0) ())) ()) () 0 () () () 2 43)
251 'c_ptr' '__iso_c_binding' '' 1 ((PROCEDURE UNKNOWN-INTENT
UNKNOWN-PROC UNKNOWN UNKNOWN 0 0 FUNCTION GENERIC) (UNKNOWN 0 0 0 0
UNKNOWN ()) 0 0 () () 0 () () () 2 42)
252 'c_ptrdiff_t' '__iso_c_binding' '' 1 ((PARAMETER UNKNOWN-INTENT
UNKNOWN-PROC UNKNOWN UNKNOWN 0 0 IS_C_INTEROP IS_ISO_C) (INTEGER 4 0 1 1
INTEGER ()) 0 0 () (CONSTANT (INTEGER 4 0 1 1 UNKNOWN ()) 0 '8') () 0 ()
() () 2 6)
253 'c_short' '__iso_c_binding' '' 1 ((PARAMETER UNKNOWN-INTENT
UNKNOWN-PROC UNKNOWN UNKNOWN 0 0 IS_C_INTEROP IS_ISO_C) (INTEGER 4 0 1 1
INTEGER ()) 0 0 () (CONSTANT (INTEGER 4 0 1 1 UNKNOWN ()) 0 '2') () 0 ()
() () 2 1)
254 'c_signed_char' '__iso_c_binding' '' 1 ((PARAMETER UNKNOWN-INTENT
UNKNOWN-PROC UNKNOWN UNKNOWN 0 0 IS_C_INTEROP IS_ISO_C) (INTEGER 4 0 1 1
INTEGER ()) 0 0 () (CONSTANT (INTEGER 4 0 1 1 UNKNOWN ()) 0 '1') () 0 ()
() () 2 8)
255 'c_size_t' '__iso_c_binding' '' 1 ((PARAMETER UNKNOWN-INTENT
UNKNOWN-PROC UNKNOWN UNKNOWN 0 0 IS_C_INTEROP IS_ISO_C) (INTEGER 4 0 1 1
INTEGER ()) 0 0 () (CONSTANT (INTEGER 4 0 1 1 UNKNOWN ()) 0 '8') () 0 ()
() () 2 7)
256 'c_sizeof' '__iso_c_binding' '' 1 ((PROCEDURE UNKNOWN-INTENT
UNKNOWN-PROC DECL UNKNOWN 0 0 INTRINSIC FUNCTION) (INTEGER 8 0 0 0
INTEGER ()) 257 0 (258) () 0 () () () 2 48)
259 'c_vertical_tab' '__iso_c_binding' '' 1 ((PARAMETER UNKNOWN-INTENT
UNKNOWN-PROC UNKNOWN UNKNOWN 0 0 IS_C_INTEROP IS_ISO_C) (CHARACTER 1 0 1
1 CHARACTER ((CONSTANT (INTEGER 4 0 0 0 INTEGER ()) 0 '1'))) 0 0 () (
CONSTANT (CHARACTER 1 0 1 1 UNKNOWN (())) 0 1 '\U0000000b') () 0 () () ()
2 41)
260 'copy_ainfo_out' 'hsl_ma48_double_ciface' '' 1 ((PROCEDURE
UNKNOWN-INTENT MODULE-PROC DECL UNKNOWN 0 0 SUBROUTINE IMPLICIT_PURE) (
UNKNOWN 0 0 0 0 UNKNOWN ()) 261 0 (262 263) () 0 () () () 0 0)
264 'copy_control_in' 'hsl_ma48_double_ciface' '' 1 ((PROCEDURE
UNKNOWN-INTENT MODULE-PROC DECL UNKNOWN 0 0 SUBROUTINE IMPLICIT_PURE) (
UNKNOWN 0 0 0 0 UNKNOWN ()) 265 0 (266 267 268) () 0 () () () 0 0)
269 'copy_finfo_out' 'hsl_ma48_double_ciface' '' 1 ((PROCEDURE
UNKNOWN-INTENT MODULE-PROC DECL UNKNOWN 0 0 SUBROUTINE IMPLICIT_PURE) (
UNKNOWN 0 0 0 0 UNKNOWN ()) 270 0 (271 272) () 0 () () () 0 0)
273 'copy_sinfo_out' 'hsl_ma48_double_ciface' '' 1 ((PROCEDURE
UNKNOWN-INTENT MODULE-PROC DECL UNKNOWN 0 0 SUBROUTINE IMPLICIT_PURE) (
UNKNOWN 0 0 0 0 UNKNOWN ()) 274 0 (275 276) () 0 () () () 0 0)
277 'ma48_ainfo' 'hsl_ma48_double' '' 1 ((PROCEDURE UNKNOWN-INTENT
UNKNOWN-PROC DECL UNKNOWN 0 0 FUNCTION GENERIC) (UNKNOWN 0 0 0 0 UNKNOWN
()) 0 0 () () 0 () () () 0 0)
278 'ma48_control' 'hsl_ma48_double' '' 1 ((PROCEDURE UNKNOWN-INTENT
UNKNOWN-PROC DECL UNKNOWN 0 0 FUNCTION GENERIC) (UNKNOWN 0 0 0 0 UNKNOWN
()) 0 0 () () 0 () () () 0 0)
279 'ma48_factors' 'hsl_ma48_double' '' 1 ((PROCEDURE UNKNOWN-INTENT
UNKNOWN-PROC DECL UNKNOWN 0 0 FUNCTION GENERIC) (UNKNOWN 0 0 0 0 UNKNOWN
()) 0 0 () () 0 () () () 0 0)
280 'ma48_finfo' 'hsl_ma48_double' '' 1 ((PROCEDURE UNKNOWN-INTENT
UNKNOWN-PROC DECL UNKNOWN 0 0 FUNCTION GENERIC) (UNKNOWN 0 0 0 0 UNKNOWN
()) 0 0 () () 0 () () () 0 0)
281 'ma48_sinfo' 'hsl_ma48_double' '' 1 ((PROCEDURE UNKNOWN-INTENT
UNKNOWN-PROC DECL UNKNOWN 0 0 FUNCTION GENERIC) (UNKNOWN 0 0 0 0 UNKNOWN
()) 0 0 () () 0 () () () 0 0)
282 'hsl_ma48_double_ciface' 'hsl_ma48_double_ciface' '' 1 ((MODULE
UNKNOWN-INTENT UNKNOWN-PROC UNKNOWN UNKNOWN 0 0) (UNKNOWN 0 0 0 0
UNKNOWN ()) 0 0 () () 0 () () () 0 0)
283 'hsl_zd11_double' 'hsl_zd11_double' '' 1 ((MODULE UNKNOWN-INTENT
UNKNOWN-PROC UNKNOWN UNKNOWN 0 0) (UNKNOWN 0 0 0 0 UNKNOWN ()) 0 0 () ()
0 () () () 0 0)
284 'kind' '(intrinsic)' '' 1 ((PROCEDURE UNKNOWN-INTENT UNKNOWN-PROC
UNKNOWN UNKNOWN 0 0 FUNCTION) (INTEGER 4 0 0 0 INTEGER ()) 0 0 () () 284
() () () 0 0)
285 'ma48_ainfo' 'hsl_ma48_double_ciface' '' 1 ((PROCEDURE
UNKNOWN-INTENT UNKNOWN-PROC DECL UNKNOWN 0 0 FUNCTION GENERIC) (UNKNOWN
0 0 0 0 UNKNOWN ()) 0 0 () () 0 () () () 0 0)
286 'ma48_control' 'hsl_ma48_double_ciface' '' 1 ((PROCEDURE
UNKNOWN-INTENT UNKNOWN-PROC DECL UNKNOWN 0 0 FUNCTION GENERIC) (UNKNOWN
0 0 0 0 UNKNOWN ()) 0 0 () () 0 () () () 0 0)
287 'ma48_finfo' 'hsl_ma48_double_ciface' '' 1 ((PROCEDURE
UNKNOWN-INTENT UNKNOWN-PROC DECL UNKNOWN 0 0 FUNCTION GENERIC) (UNKNOWN
0 0 0 0 UNKNOWN ()) 0 0 () () 0 () () () 0 0)
288 'ma48_sinfo' 'hsl_ma48_double_ciface' '' 1 ((PROCEDURE
UNKNOWN-INTENT UNKNOWN-PROC DECL UNKNOWN 0 0 FUNCTION GENERIC) (UNKNOWN
0 0 0 0 UNKNOWN ()) 0 0 () () 0 () () () 0 0)
289 'wp' 'hsl_ma48_double_ciface' '' 1 ((PARAMETER UNKNOWN-INTENT
UNKNOWN-PROC UNKNOWN IMPLICIT-SAVE 0 0 IS_C_INTEROP IS_ISO_C) (INTEGER 4
0 1 1 REAL ()) 0 0 () (CONSTANT (INTEGER 4 0 1 1 REAL ()) 0 '8') () 0 ()
() () 0 0)
290 'zd11_get' 'hsl_zd11_double' '' 1 ((PROCEDURE UNKNOWN-INTENT
MODULE-PROC DECL UNKNOWN 0 0 FUNCTION IMPLICIT_PURE ALWAYS_EXPLICIT) (
CHARACTER 1 0 0 0 CHARACTER ((FUNCTION (INTEGER 4 0 0 0 INTEGER ()) 0
291 (('' (VARIABLE (CHARACTER 1 0 0 0 CHARACTER ((CONSTANT (INTEGER 4 0
0 0 INTEGER ()) 0 '1'))) 1 292 ((ARRAY (FULL 1 2))))) ('' ()) ('' ())) ''
0 'size'))) 293 0 (292) () 290 () () () 0 0)
294 'zd11_put' 'hsl_zd11_double' '' 1 ((PROCEDURE UNKNOWN-INTENT
MODULE-PROC DECL UNKNOWN 0 0 SUBROUTINE ALWAYS_EXPLICIT) (UNKNOWN 0 0 0
0 UNKNOWN ()) 295 0 (296 297 298) () 0 () () () 0 0)
299 'zd11_type' 'hsl_zd11_double' '' 1 ((PROCEDURE UNKNOWN-INTENT
UNKNOWN-PROC DECL UNKNOWN 0 0 FUNCTION GENERIC) (REAL 4 0 0 0 REAL ()) 0
0 () () 0 () () () 0 0)
23 'matrix' '' '' 22 ((VARIABLE IN UNKNOWN-PROC UNKNOWN UNKNOWN 0 0
DUMMY) (DERIVED 21 0 0 0 DERIVED ()) 0 0 () () 0 () () () 0 0)
24 'factors' '' '' 22 ((VARIABLE INOUT UNKNOWN-PROC UNKNOWN UNKNOWN 0 0
DUMMY) (DERIVED 9 0 0 0 DERIVED ()) 0 0 () () 0 () () () 0 0)
25 'control' '' '' 22 ((VARIABLE IN UNKNOWN-PROC UNKNOWN UNKNOWN 0 0
DUMMY) (DERIVED 6 0 0 0 DERIVED ()) 0 0 () () 0 () () () 0 0)
26 'ainfo' '' '' 22 ((VARIABLE OUT UNKNOWN-PROC UNKNOWN UNKNOWN 0 0
DUMMY) (DERIVED 4 0 0 0 DERIVED ()) 0 0 () () 0 () () () 0 0)
27 'finfo' '' '' 22 ((VARIABLE OUT UNKNOWN-PROC UNKNOWN UNKNOWN 0 0
OPTIONAL DUMMY) (DERIVED 11 0 0 0 DERIVED ()) 0 0 () () 0 () () () 0 0)
28 'perm' '' '' 22 ((VARIABLE IN UNKNOWN-PROC UNKNOWN UNKNOWN 0 0
DIMENSION OPTIONAL DUMMY) (INTEGER 4 0 0 0 INTEGER ()) 0 0 () (1 0
EXPLICIT (CONSTANT (INTEGER 4 0 0 0 INTEGER ()) 0 '1') (OP (INTEGER 4 0
0 0 INTEGER ()) 0 PLUS (VARIABLE (INTEGER 4 0 0 0 INTEGER ()) 0 23 ((
COMPONENT 21 47))) (VARIABLE (INTEGER 4 0 0 0 INTEGER ()) 0 23 ((
COMPONENT 21 48))))) 0 () () () 0 0)
29 'endcol' '' '' 22 ((VARIABLE IN UNKNOWN-PROC UNKNOWN UNKNOWN 0 0
DIMENSION OPTIONAL DUMMY) (INTEGER 4 0 0 0 INTEGER ()) 0 0 () (1 0
EXPLICIT (CONSTANT (INTEGER 4 0 0 0 INTEGER ()) 0 '1') (VARIABLE (
INTEGER 4 0 0 0 INTEGER ()) 0 23 ((COMPONENT 21 48)))) 0 () () () 0 0)
31 'factors' '' '' 30 ((VARIABLE INOUT UNKNOWN-PROC UNKNOWN UNKNOWN 0 0
DUMMY) (DERIVED 9 0 0 0 DERIVED ()) 0 0 () () 0 () () () 0 0)
32 'control' '' '' 30 ((VARIABLE IN UNKNOWN-PROC UNKNOWN UNKNOWN 0 0
DUMMY) (DERIVED 6 0 0 0 DERIVED ()) 0 0 () () 0 () () () 0 0)
33 'info' '' '' 30 ((VARIABLE OUT UNKNOWN-PROC UNKNOWN UNKNOWN 0 0 DUMMY)
(INTEGER 4 0 0 0 INTEGER ()) 0 0 () () 0 () () () 0 0)
35 'factors' '' '' 34 ((VARIABLE IN UNKNOWN-PROC UNKNOWN UNKNOWN 0 0
OPTIONAL DUMMY) (DERIVED 9 0 0 0 DERIVED ()) 0 0 () () 0 () () () 0 0)
36 'perm' '' '' 34 ((VARIABLE OUT UNKNOWN-PROC UNKNOWN UNKNOWN 0 0
DIMENSION DUMMY) (INTEGER 4 0 0 0 INTEGER ()) 0 0 () (1 0 ASSUMED_SHAPE
(CONSTANT (INTEGER 4 0 0 0 INTEGER ()) 0 '1') ()) 0 () () () 0 0)
38 'factors' '' '' 37 ((VARIABLE OUT UNKNOWN-PROC UNKNOWN UNKNOWN 0 0
OPTIONAL DUMMY) (DERIVED 9 0 0 0 DERIVED ()) 0 0 () () 0 () () () 0 0)
39 'control' '' '' 37 ((VARIABLE OUT UNKNOWN-PROC UNKNOWN UNKNOWN 0 0
OPTIONAL DUMMY) (DERIVED 6 0 0 0 DERIVED ()) 0 0 () () 0 () () () 0 0)
41 'factors' '' '' 40 ((VARIABLE IN UNKNOWN-PROC UNKNOWN UNKNOWN 0 0
DUMMY) (DERIVED 9 0 0 0 DERIVED ()) 0 0 () () 0 () () () 0 0)
42 'rank' '' '' 40 ((VARIABLE OUT UNKNOWN-PROC UNKNOWN UNKNOWN 0 0 DUMMY)
(INTEGER 4 0 0 0 INTEGER ()) 0 0 () () 0 () () () 0 0)
43 'rows' '' '' 40 ((VARIABLE OUT UNKNOWN-PROC UNKNOWN UNKNOWN 0 0
DIMENSION DUMMY) (INTEGER 4 0 0 0 INTEGER ()) 0 0 () (1 0 EXPLICIT (
CONSTANT (INTEGER 4 0 0 0 INTEGER ()) 0 '1') (VARIABLE (INTEGER 4 0 0 0
INTEGER ()) 0 41 ((COMPONENT 9 126)))) 0 () () () 0 0)
44 'cols' '' '' 40 ((VARIABLE OUT UNKNOWN-PROC UNKNOWN UNKNOWN 0 0
DIMENSION DUMMY) (INTEGER 4 0 0 0 INTEGER ()) 0 0 () (1 0 EXPLICIT (
CONSTANT (INTEGER 4 0 0 0 INTEGER ()) 0 '1') (VARIABLE (INTEGER 4 0 0 0
INTEGER ()) 0 41 ((COMPONENT 9 127)))) 0 () () () 0 0)
45 'control' '' '' 40 ((VARIABLE IN UNKNOWN-PROC UNKNOWN UNKNOWN 0 0
DUMMY) (DERIVED 6 0 0 0 DERIVED ()) 0 0 () () 0 () () () 0 0)
46 'info' '' '' 40 ((VARIABLE OUT UNKNOWN-PROC UNKNOWN UNKNOWN 0 0 DUMMY)
(INTEGER 4 0 0 0 INTEGER ()) 0 0 () () 0 () () () 0 0)
57 'matrix' '' '' 56 ((VARIABLE IN UNKNOWN-PROC UNKNOWN UNKNOWN 0 0
DUMMY) (DERIVED 21 0 0 0 DERIVED ()) 0 0 () () 0 () () () 0 0)
58 'factors' '' '' 56 ((VARIABLE IN UNKNOWN-PROC UNKNOWN UNKNOWN 0 0
DUMMY) (DERIVED 9 0 0 0 DERIVED ()) 0 0 () () 0 () () () 0 0)
59 'rhs' '' '' 56 ((VARIABLE IN UNKNOWN-PROC UNKNOWN UNKNOWN 0 0
DIMENSION DUMMY) (REAL 8 0 0 0 REAL ()) 0 0 () (1 0 ASSUMED_SHAPE (
CONSTANT (INTEGER 4 0 0 0 INTEGER ()) 0 '1') ()) 0 () () () 0 0)
60 'x' '' '' 56 ((VARIABLE OUT UNKNOWN-PROC UNKNOWN UNKNOWN 0 0
DIMENSION DUMMY) (REAL 8 0 0 0 REAL ()) 0 0 () (1 0 ASSUMED_SHAPE (
CONSTANT (INTEGER 4 0 0 0 INTEGER ()) 0 '1') ()) 0 () () () 0 0)
61 'control' '' '' 56 ((VARIABLE IN UNKNOWN-PROC UNKNOWN UNKNOWN 0 0
DUMMY) (DERIVED 6 0 0 0 DERIVED ()) 0 0 () () 0 () () () 0 0)
62 'sinfo' '' '' 56 ((VARIABLE OUT UNKNOWN-PROC UNKNOWN UNKNOWN 0 0
DUMMY) (DERIVED 14 0 0 0 DERIVED ()) 0 0 () () 0 () () () 0 0)
63 'trans' '' '' 56 ((VARIABLE IN UNKNOWN-PROC UNKNOWN UNKNOWN 0 0
OPTIONAL DUMMY) (INTEGER 4 0 0 0 INTEGER ()) 0 0 () () 0 () () () 0 0)
64 'resid' '' '' 56 ((VARIABLE OUT UNKNOWN-PROC UNKNOWN UNKNOWN 0 0
DIMENSION OPTIONAL DUMMY) (REAL 8 0 0 0 REAL ()) 0 0 () (1 0 EXPLICIT (
CONSTANT (INTEGER 4 0 0 0 INTEGER ()) 0 '1') (CONSTANT (INTEGER 4 0 0 0
INTEGER ()) 0 '2')) 0 () () () 0 0)
65 'error' '' '' 56 ((VARIABLE OUT UNKNOWN-PROC UNKNOWN UNKNOWN 0 0
OPTIONAL DUMMY) (REAL 8 0 0 0 REAL ()) 0 0 () () 0 () () () 0 0)
67 'matrix' '' '' 66 ((VARIABLE IN UNKNOWN-PROC UNKNOWN UNKNOWN 0 0
DUMMY) (DERIVED 21 0 0 0 DERIVED ()) 0 0 () () 0 () () () 0 0)
68 'factors' '' '' 66 ((VARIABLE INOUT UNKNOWN-PROC UNKNOWN UNKNOWN 0 0
DUMMY) (DERIVED 9 0 0 0 DERIVED ()) 0 0 () () 0 () () () 0 0)
69 'control' '' '' 66 ((VARIABLE IN UNKNOWN-PROC UNKNOWN UNKNOWN 0 0
DUMMY) (DERIVED 6 0 0 0 DERIVED ()) 0 0 () () 0 () () () 0 0)
70 'finfo' '' '' 66 ((VARIABLE OUT UNKNOWN-PROC UNKNOWN UNKNOWN 0 0
DUMMY) (DERIVED 11 0 0 0 DERIVED ()) 0 0 () () 0 () () () 0 0)
71 'fast' '' '' 66 ((VARIABLE IN UNKNOWN-PROC UNKNOWN UNKNOWN 0 0
OPTIONAL DUMMY) (INTEGER 4 0 0 0 INTEGER ()) 0 0 () () 0 () () () 0 0)
72 'partial' '' '' 66 ((VARIABLE IN UNKNOWN-PROC UNKNOWN UNKNOWN 0 0
OPTIONAL DUMMY) (INTEGER 4 0 0 0 INTEGER ()) 0 0 () () 0 () () () 0 0)
74 'factors' '' '' 73 ((VARIABLE IN UNKNOWN-PROC UNKNOWN UNKNOWN 0 0
DUMMY) (DERIVED 9 0 0 0 DERIVED ()) 0 0 () () 0 () () () 0 0)
75 'sgndet' '' '' 73 ((VARIABLE OUT UNKNOWN-PROC UNKNOWN UNKNOWN 0 0
DUMMY) (INTEGER 4 0 0 0 INTEGER ()) 0 0 () () 0 () () () 0 0)
76 'logdet' '' '' 73 ((VARIABLE OUT UNKNOWN-PROC UNKNOWN UNKNOWN 0 0
DUMMY) (REAL 8 0 0 0 REAL ()) 0 0 () () 0 () () () 0 0)
77 'control' '' '' 73 ((VARIABLE IN UNKNOWN-PROC UNKNOWN UNKNOWN 0 0
DUMMY) (DERIVED 6 0 0 0 DERIVED ()) 0 0 () () 0 () () () 0 0)
78 'info' '' '' 73 ((VARIABLE OUT UNKNOWN-PROC UNKNOWN UNKNOWN 0 0 DUMMY)
(INTEGER 4 0 0 0 INTEGER ()) 0 0 () () 0 () () () 0 0)
199 'C_ptr_1' '__iso_c_binding' '' 198 ((DERIVED IN UNKNOWN-PROC UNKNOWN
UNKNOWN 0 0 VALUE DUMMY) (DERIVED 3 0 0 0 DERIVED ()) 0 0 () () 0 () ()
() 0 0 0)
200 'C_ptr_2' '__iso_c_binding' '' 198 ((DERIVED IN UNKNOWN-PROC UNKNOWN
UNKNOWN 0 0 OPTIONAL VALUE DUMMY) (DERIVED 3 0 0 0 DERIVED ()) 0 0 () ()
0 () () () 0 0 0)
209 'Cptr' '__iso_c_binding' '' 208 ((DERIVED IN UNKNOWN-PROC UNKNOWN
UNKNOWN 0 0 VALUE DUMMY) (DERIVED 3 0 0 0 DERIVED ()) 0 0 () () 0 () ()
() 0 0 0)
210 'fptr' '__iso_c_binding' '' 208 ((VARIABLE UNKNOWN-INTENT
UNKNOWN-PROC UNKNOWN UNKNOWN 0 0 POINTER DUMMY) (VOID 0 0 0 0 VOID ()) 0
0 () () 0 () () () 0 0)
211 'shape' '__iso_c_binding' '' 208 ((VARIABLE IN UNKNOWN-PROC UNKNOWN
UNKNOWN 0 0 DIMENSION OPTIONAL DUMMY) (VOID 4 0 0 0 VOID ()) 0 0 () (1 0
ASSUMED_SHAPE (CONSTANT (INTEGER 4 0 0 0 INTEGER ()) 0 '1') ()) 0 () ()
() 0 0)
214 'Cptr' '__iso_c_binding' '' 213 ((DERIVED IN UNKNOWN-PROC UNKNOWN
UNKNOWN 0 0 VALUE DUMMY) (DERIVED 2 0 0 0 DERIVED ()) 0 0 () () 0 () ()
() 0 0 0)
215 'fptr' '__iso_c_binding' '' 213 ((VARIABLE UNKNOWN-INTENT
UNKNOWN-PROC UNKNOWN UNKNOWN 0 0 DUMMY PROC_POINTER) (VOID 0 0 0 0 VOID
()) 0 0 () () 0 () () () 0 0)
258 'x' '' '' 257 ((VARIABLE IN UNKNOWN-PROC UNKNOWN UNKNOWN 0 0 DUMMY)
(UNKNOWN 0 0 0 0 UNKNOWN ()) 0 0 () () 0 () () () 0 0)
262 'fainfo' '' '' 261 ((VARIABLE IN UNKNOWN-PROC UNKNOWN UNKNOWN 0 0
DUMMY) (DERIVED 4 0 0 0 DERIVED ()) 0 0 () () 0 () () () 0 0)
263 'cainfo' '' '' 261 ((VARIABLE OUT UNKNOWN-PROC UNKNOWN UNKNOWN 0 0
DUMMY) (DERIVED 17 0 0 0 DERIVED ()) 0 0 () () 0 () () () 0 0)
266 'ccontrol' '' '' 265 ((VARIABLE IN UNKNOWN-PROC UNKNOWN UNKNOWN 0 0
DUMMY) (DERIVED 18 0 0 0 DERIVED ()) 0 0 () () 0 () () () 0 0)
267 'fcontrol' '' '' 265 ((VARIABLE OUT UNKNOWN-PROC UNKNOWN UNKNOWN 0 0
DUMMY) (DERIVED 6 0 0 0 DERIVED ()) 0 0 () () 0 () () () 0 0)
268 'f_arrays' '' '' 265 ((VARIABLE OUT UNKNOWN-PROC UNKNOWN UNKNOWN 0 0
DUMMY) (LOGICAL 4 0 0 0 LOGICAL ()) 0 0 () () 0 () () () 0 0)
271 'ffinfo' '' '' 270 ((VARIABLE IN UNKNOWN-PROC UNKNOWN UNKNOWN 0 0
DUMMY) (DERIVED 11 0 0 0 DERIVED ()) 0 0 () () 0 () () () 0 0)
272 'cfinfo' '' '' 270 ((VARIABLE OUT UNKNOWN-PROC UNKNOWN UNKNOWN 0 0
DUMMY) (DERIVED 19 0 0 0 DERIVED ()) 0 0 () () 0 () () () 0 0)
275 'fsinfo' '' '' 274 ((VARIABLE IN UNKNOWN-PROC UNKNOWN UNKNOWN 0 0
DUMMY) (DERIVED 14 0 0 0 DERIVED ()) 0 0 () () 0 () () () 0 0)
276 'csinfo' '' '' 274 ((VARIABLE OUT UNKNOWN-PROC UNKNOWN UNKNOWN 0 0
DUMMY) (DERIVED 20 0 0 0 DERIVED ()) 0 0 () () 0 () () () 0 0)
291 'size' '(intrinsic)' '' 293 ((PROCEDURE UNKNOWN-INTENT UNKNOWN-PROC
UNKNOWN UNKNOWN 0 0 FUNCTION) (REAL 4 0 0 0 REAL ()) 0 0 () () 291 () ()
() 0 0)
292 'array' '' '' 293 ((VARIABLE IN UNKNOWN-PROC UNKNOWN UNKNOWN 0 0
DIMENSION DUMMY) (CHARACTER 1 0 0 0 CHARACTER ((CONSTANT (INTEGER 4 0 0
0 INTEGER ()) 0 '1'))) 0 0 () (1 0 ASSUMED_SHAPE (CONSTANT (INTEGER 4 0
0 0 INTEGER ()) 0 '1') ()) 0 () () () 0 0)
296 'array' '' '' 295 ((VARIABLE UNKNOWN-INTENT UNKNOWN-PROC UNKNOWN
UNKNOWN 0 0 ALLOCATABLE DIMENSION DUMMY) (CHARACTER 1 0 0 0 CHARACTER (
(CONSTANT (INTEGER 4 0 0 0 INTEGER ()) 0 '1'))) 0 0 () (1 0 DEFERRED ()
()) 0 () () () 0 0)
297 'string' '' '' 295 ((VARIABLE IN UNKNOWN-PROC UNKNOWN UNKNOWN 0 0
DUMMY) (CHARACTER 1 0 0 0 CHARACTER (())) 0 0 () () 0 () () () 0 0)
298 'stat' '' '' 295 ((VARIABLE OUT UNKNOWN-PROC UNKNOWN UNKNOWN 0 0
DUMMY) (INTEGER 4 0 0 0 INTEGER ()) 0 0 () () 0 () () () 0 0)
)

('C_funptr' 0 2 'C_ptr' 0 3 'F_ma48_ainfo' 0 4 'F_ma48_control' 0 6
'F_ma48_factors' 0 9 'F_ma48_finfo' 0 11 'F_ma48_sinfo' 0 14 'Ma48_ainfo'
0 17 'Ma48_control' 0 18 'Ma48_finfo' 0 19 'Ma48_sinfo' 0 20 'Zd11_type'
0 21 '__iso_c_binding' 0 195 'c_alert' 0 196 'c_associated' 0 197
'c_backspace' 0 201 'c_bool' 0 202 'c_carriage_return' 0 203 'c_char' 0
204 'c_double' 0 205 'c_double_complex' 0 206 'c_f_pointer' 0 207
'c_f_procpointer' 0 212 'c_float' 0 216 'c_float128' 0 217
'c_float128_complex' 0 218 'c_float_complex' 0 219 'c_form_feed' 0 220
'c_funloc' 0 221 'c_funptr' 0 222 'c_horizontal_tab' 0 223 'c_int' 0 224
'c_int128_t' 0 225 'c_int16_t' 0 226 'c_int32_t' 0 227 'c_int64_t' 0 228
'c_int8_t' 0 229 'c_int_fast128_t' 0 230 'c_int_fast16_t' 0 231
'c_int_fast32_t' 0 232 'c_int_fast64_t' 0 233 'c_int_fast8_t' 0 234
'c_int_least128_t' 0 235 'c_int_least16_t' 0 236 'c_int_least32_t' 0 237
'c_int_least64_t' 0 238 'c_int_least8_t' 0 239 'c_intmax_t' 0 240
'c_intptr_t' 0 241 'c_loc' 0 242 'c_long' 0 243 'c_long_double' 0 244
'c_long_double_complex' 0 245 'c_long_long' 0 246 'c_new_line' 0 247
'c_null_char' 0 248 'c_null_funptr' 0 249 'c_null_ptr' 0 250 'c_ptr' 0
251 'c_ptrdiff_t' 0 252 'c_short' 0 253 'c_signed_char' 0 254 'c_size_t'
0 255 'c_sizeof' 0 256 'c_vertical_tab' 0 259 'copy_ainfo_out' 0 260
'copy_control_in' 0 264 'copy_finfo_out' 0 269 'copy_sinfo_out' 0 273
'f_ma48_ainfo' 0 277 'f_ma48_control' 0 278 'f_ma48_factors' 0 279
'f_ma48_finfo' 0 280 'f_ma48_sinfo' 0 281 'hsl_ma48_double_ciface' 0 282
'hsl_zd11_double' 0 283 'kind' 0 284 'ma48_ainfo' 0 285 'ma48_control' 0
286 'ma48_finfo' 0 287 'ma48_sinfo' 0 288 'wp' 0 289 'zd11_get' 0 290
'zd11_put' 0 294 'zd11_type' 0 299)
