GFORTRAN module version '10' created from /software/campariv3/source/hsl/common90.f90
MD5:b96e03469850462ccb66e951b6691658 -- If you edit this, you'll get what you deserve.

(() () () () () () () () () () () () () () () () () () () () () () () ()
() () ())

()

(('zb01_info' 'hsl_zb01_integer' 2) ('zb01_resize1' 'hsl_zb01_integer' 3)
('zb01_resize2' 'hsl_zb01_integer' 4))

()

()

()

(2 'Zb01_info' 'hsl_zb01_integer' '' 1 ((DERIVED UNKNOWN-INTENT
UNKNOWN-PROC UNKNOWN UNKNOWN 0 0) (UNKNOWN 0 0 0 0 UNKNOWN ()) 0 0 () ()
0 ((5 'flag' (INTEGER 4 0 0 0 INTEGER ()) () (UNKNOWN-FL UNKNOWN-INTENT
UNKNOWN-PROC UNKNOWN UNKNOWN 0 0) UNKNOWN-ACCESS (CONSTANT (INTEGER 4 0
0 0 INTEGER ()) 0 '0')) (6 'iostat' (INTEGER 4 0 0 0 INTEGER ()) () (
UNKNOWN-FL UNKNOWN-INTENT UNKNOWN-PROC UNKNOWN UNKNOWN 0 0)
UNKNOWN-ACCESS (CONSTANT (INTEGER 4 0 0 0 INTEGER ()) 0 '0')) (7 'stat'
(INTEGER 4 0 0 0 INTEGER ()) () (UNKNOWN-FL UNKNOWN-INTENT UNKNOWN-PROC
UNKNOWN UNKNOWN 0 0) UNKNOWN-ACCESS (CONSTANT (INTEGER 4 0 0 0 INTEGER ())
0 '0')) (8 'files_used' (INTEGER 4 0 0 0 INTEGER ()) () (UNKNOWN-FL
UNKNOWN-INTENT UNKNOWN-PROC UNKNOWN UNKNOWN 0 0) UNKNOWN-ACCESS (
CONSTANT (INTEGER 4 0 0 0 INTEGER ()) 0 '0'))) PUBLIC (() () () ()) () 0
0 86275211)
9 'zb01_info' 'hsl_zb01_integer' '' 1 ((PROCEDURE UNKNOWN-INTENT
UNKNOWN-PROC DECL UNKNOWN 0 0 FUNCTION GENERIC) (UNKNOWN 0 0 0 0 UNKNOWN
()) 0 0 () () 0 () () () 0 0)
3 'zb01_resize1_integer' 'hsl_zb01_integer' '' 1 ((PROCEDURE
UNKNOWN-INTENT MODULE-PROC DECL UNKNOWN 0 0 SUBROUTINE ALWAYS_EXPLICIT)
(UNKNOWN 0 0 0 0 UNKNOWN ()) 10 0 (11 12 13 14 15 16 17 18 19) () 0 () ()
() 0 0)
4 'zb01_resize2_integer' 'hsl_zb01_integer' '' 1 ((PROCEDURE
UNKNOWN-INTENT MODULE-PROC DECL UNKNOWN 0 0 SUBROUTINE ALWAYS_EXPLICIT)
(UNKNOWN 0 0 0 0 UNKNOWN ()) 20 0 (21 22 23 24 25 26 27 28 29) () 0 () ()
() 0 0)
11 'w' '' '' 10 ((VARIABLE INOUT UNKNOWN-PROC UNKNOWN UNKNOWN 0 0
ALLOCATABLE DIMENSION DUMMY) (INTEGER 4 0 0 0 INTEGER ()) 0 0 () (1 0
DEFERRED () ()) 0 () () () 0 0)
12 'size_in' '' '' 10 ((VARIABLE IN UNKNOWN-PROC UNKNOWN UNKNOWN 0 0
DUMMY) (INTEGER 8 0 0 0 INTEGER ()) 0 0 () () 0 () () () 0 0)
13 'size_out' '' '' 10 ((VARIABLE INOUT UNKNOWN-PROC UNKNOWN UNKNOWN 0 0
DUMMY) (INTEGER 8 0 0 0 INTEGER ()) 0 0 () () 0 () () () 0 0)
14 'info' '' '' 10 ((VARIABLE OUT UNKNOWN-PROC UNKNOWN UNKNOWN 0 0 DUMMY)
(DERIVED 2 0 0 0 DERIVED ()) 0 0 () () 0 () () () 0 0)
15 'src' '' '' 10 ((VARIABLE IN UNKNOWN-PROC UNKNOWN UNKNOWN 0 0
DIMENSION OPTIONAL DUMMY) (INTEGER 8 0 0 0 INTEGER ()) 0 0 () (1 0
EXPLICIT (CONSTANT (INTEGER 4 0 0 0 INTEGER ()) 0 '1') (CONSTANT (
INTEGER 4 0 0 0 INTEGER ()) 0 '2')) 0 () () () 0 0)
16 'dest' '' '' 10 ((VARIABLE IN UNKNOWN-PROC UNKNOWN UNKNOWN 0 0
DIMENSION OPTIONAL DUMMY) (INTEGER 8 0 0 0 INTEGER ()) 0 0 () (1 0
EXPLICIT (CONSTANT (INTEGER 4 0 0 0 INTEGER ()) 0 '1') (CONSTANT (
INTEGER 4 0 0 0 INTEGER ()) 0 '2')) 0 () () () 0 0)
17 'filename' '' '' 10 ((VARIABLE IN UNKNOWN-PROC UNKNOWN UNKNOWN 0 0
OPTIONAL DUMMY) (CHARACTER 1 0 0 0 CHARACTER (())) 0 0 () () 0 () () ()
0 0)
18 'file_size' '' '' 10 ((VARIABLE IN UNKNOWN-PROC UNKNOWN UNKNOWN 0 0
OPTIONAL DUMMY) (INTEGER 8 0 0 0 INTEGER ()) 0 0 () () 0 () () () 0 0)
19 'mode' '' '' 10 ((VARIABLE IN UNKNOWN-PROC UNKNOWN UNKNOWN 0 0
OPTIONAL DUMMY) (INTEGER 4 0 0 0 INTEGER ()) 0 0 () () 0 () () () 0 0)
21 'w' '' '' 20 ((VARIABLE INOUT UNKNOWN-PROC UNKNOWN UNKNOWN 0 0
ALLOCATABLE DIMENSION DUMMY) (INTEGER 4 0 0 0 INTEGER ()) 0 0 () (2 0
DEFERRED () () () ()) 0 () () () 0 0)
22 'size_in' '' '' 20 ((VARIABLE IN UNKNOWN-PROC UNKNOWN UNKNOWN 0 0
DIMENSION DUMMY) (INTEGER 8 0 0 0 INTEGER ()) 0 0 () (1 0 EXPLICIT (
CONSTANT (INTEGER 4 0 0 0 INTEGER ()) 0 '1') (CONSTANT (INTEGER 4 0 0 0
INTEGER ()) 0 '2')) 0 () () () 0 0)
23 'size_out' '' '' 20 ((VARIABLE INOUT UNKNOWN-PROC UNKNOWN UNKNOWN 0 0
DIMENSION DUMMY) (INTEGER 8 0 0 0 INTEGER ()) 0 0 () (1 0 EXPLICIT (
CONSTANT (INTEGER 4 0 0 0 INTEGER ()) 0 '1') (CONSTANT (INTEGER 4 0 0 0
INTEGER ()) 0 '2')) 0 () () () 0 0)
24 'info' '' '' 20 ((VARIABLE OUT UNKNOWN-PROC UNKNOWN UNKNOWN 0 0 DUMMY)
(DERIVED 2 0 0 0 DERIVED ()) 0 0 () () 0 () () () 0 0)
25 'src' '' '' 20 ((VARIABLE IN UNKNOWN-PROC UNKNOWN UNKNOWN 0 0
DIMENSION OPTIONAL DUMMY) (INTEGER 8 0 0 0 INTEGER ()) 0 0 () (2 0
EXPLICIT (CONSTANT (INTEGER 4 0 0 0 INTEGER ()) 0 '1') (CONSTANT (
INTEGER 4 0 0 0 INTEGER ()) 0 '2') (CONSTANT (INTEGER 4 0 0 0 INTEGER ())
0 '1') (CONSTANT (INTEGER 4 0 0 0 INTEGER ()) 0 '2')) 0 () () () 0 0)
26 'dest' '' '' 20 ((VARIABLE IN UNKNOWN-PROC UNKNOWN UNKNOWN 0 0
DIMENSION OPTIONAL DUMMY) (INTEGER 8 0 0 0 INTEGER ()) 0 0 () (2 0
EXPLICIT (CONSTANT (INTEGER 4 0 0 0 INTEGER ()) 0 '1') (CONSTANT (
INTEGER 4 0 0 0 INTEGER ()) 0 '2') (CONSTANT (INTEGER 4 0 0 0 INTEGER ())
0 '1') (CONSTANT (INTEGER 4 0 0 0 INTEGER ()) 0 '2')) 0 () () () 0 0)
27 'filename' '' '' 20 ((VARIABLE IN UNKNOWN-PROC UNKNOWN UNKNOWN 0 0
OPTIONAL DUMMY) (CHARACTER 1 0 0 0 CHARACTER (())) 0 0 () () 0 () () ()
0 0)
28 'file_size' '' '' 20 ((VARIABLE IN UNKNOWN-PROC UNKNOWN UNKNOWN 0 0
OPTIONAL DUMMY) (INTEGER 8 0 0 0 INTEGER ()) 0 0 () () 0 () () () 0 0)
29 'mode' '' '' 20 ((VARIABLE IN UNKNOWN-PROC UNKNOWN UNKNOWN 0 0
OPTIONAL DUMMY) (INTEGER 4 0 0 0 INTEGER ()) 0 0 () () 0 () () () 0 0)
)

('Zb01_info' 0 2 'zb01_info' 0 9)
